{
  "1": "black",
  "2": "white",
  "1010": "ima_5070",
  "1011": "ima_5070a",
  "1020": "ima_5020",
  "1030": "ima_5040",
  "1040": "ima_5060_b1",
  "1042": "ima_5060_a1",
  "1043": "ima_5060_a2",
  "1044": "ima_5060_a3",
  "1045": "ima_5060_a4",
  "1050": "ima_5080",
  "1060": "ima_5050_a",
  "1061": "ima_5050_b",
  "1070": "nana_1010_a1",
  "1071": "nana_1010_a4",
  "1072": "nana_1010_b1",
  "1073": "nana_1010_b4",
  "1075": "nana_1010_c4",
  "1076": "nana_1010_d1",
  "1080": "nana_1020",
  "1081": "nana_1020_a",
  "1090": "nana_1030",
  "1100": "nana_1040_b1",
  "1101": "nana_1040_b2",
  "1102": "nana_1040",
  "1104": "nana_1040a3",
  "1105": "nana_1040a4",
  "1110": "nana_1050",
  "1111": "nana_1050_b",
  "1120": "nana_1060_01",
  "1130": "nana_1080",
  "1131": "nana_1080b",
  "1132": "nana_1080c",
  "1133": "nana_1080d",
  "1134": "nana_1080e",
  "1135": "nana_1080f",
  "1140": "nana_1115",
  "1150": "nana_1140b",
  "1160": "nana_1120_1_a01",
  "1163": "nana_1120_1_a04",
  "1170": "nana_1130a",
  "1180": "nana_1150_01",
  "1181": "nana_1150_02",
  "1190": "nana_1170",
  "1193": "nana_1170a",
  "1200": "nana_1180",
  "1240": "nana_1190c",
  "1241": "nana_1190d",
  "1242": "nana_1190",
  "1250": "nana_1220",
  "1260": "nana_1230_01",
  "1261": "nana_1230_01b",
  "1262": "nana_1230_02",
  "1263": "nana_1230_02b",
  "1264": "nana_1230_01c",
  "1265": "nana_1230_01d",
  "1270": "ima_5180",
  "1280": "ima_5180_b",
  "1290": "nana_1240",
  "1300": "ima_5240_02",
  "1310": "nana_1250",
  "1311": "nana_1250b2",
  "1312": "nana_1250c",
  "1320": "nana_1370",
  "1330": "nana_1380",
  "1510": "ima_5100",
  "1520": "ima_5110",
  "1530": "hika_2010",
  "1550": "hika_2030",
  "1560": "hika_2040",
  "1570": "hika_2050_a",
  "1571": "hika_2050_b",
  "1572": "hika_2050_c",
  "1573": "hika_2050_d",
  "1574": "hika_2050_e",
  "1575": "hika_2050_f",
  "1580": "hika_2060",
  "1581": "hika_2060b",
  "1590": "hika_2070_a",
  "1591": "hika_2070_b",
  "1600": "hika_2080_a",
  "1603": "hika_2080_d",
  "1610": "hika_2090_a",
  "1620": "hika_2100_a",
  "1621": "hika_2100_b",
  "1622": "hika_2100_c",
  "1623": "hika_2100_d",
  "1630": "hika_2110",
  "1640": "hika_2120",
  "1641": "hika_2120_d",
  "1650": "hika_2140",
  "1651": "hika_2140c",
  "1660": "hika_2170a",
  "1661": "hika_2170b",
  "1670": "hika_2150",
  "1680": "hika_2160",
  "2010": "ima_5010",
  "2020": "suzu_3130_b",
  "2030": "suzu_3030",
  "2040": "suzu_3010_a",
  "2050": "suzu_3040_b1",
  "2060": "suzu_3050_b",
  "2070": "suzu_3060_b2",
  "2080": "suzu_3090_a",
  "2090": "suzu_3100_b1",
  "2091": "suzu_3100_b2",
  "2100": "suzu_3110_a",
  "2110": "suzu_3120",
  "2120": "suzu_3020_b2",
  "2121": "suzu_3020_b_1",
  "2122": "suzu_3020_b_2",
  "2123": "suzu_3020_a",
  "2124": "suzu_3020_a_1",
  "2125": "suzu_3020_a_2",
  "2130": "suzu_3140e",
  "2131": "suzu_3140i",
  "2140": "suzu_3080_07m",
  "2141": "suzu_3080_09m",
  "2142": "suzu_3080_10m",
  "2191": "suzue_t01_02",
  "2192": "suzue_t01_04",
  "2510": "tae_4010",
  "2520": "tae_4020_a",
  "2521": "tae_4020_b",
  "2530": "tae_4030",
  "2540": "tae_4040b",
  "2541": "tae_4040",
  "2550": "tae_4050",
  "2560": "tae_4060_a",
  "2561": "tae_4060_c",
  "2562": "tae_4060_b",
  "2570": "tae_4100_b",
  "2571": "tae_4100_c",
  "2572": "tae_4100_a",
  "2580": "tae_4110",
  "2600": "ima_5220",
  "2610": "ima_5150",
  "2620": "ima_5140_b",
  "2621": "tae_4090_b",
  "2630": "taeh_4200_b",
  "2631": "taeh_4200_a",
  "2633": "taeh_4200_d",
  "3010": "nana_1090_01",
  "3011": "nana_1090_02",
  "3020": "nana_1110_a",
  "3021": "nana_1110_b",
  "3030": "saku_6010",
  "3040": "saku_6020_b",
  "3041": "saku_6020_a",
  "3050": "mama_6110",
  "3060": "mama_6120",
  "3110": "omake_6410a1",
  "3111": "omake_6410a",
  "3121": "omake_6410b_04",
  "4001": "hata1_1n_b05"
}