{
  "1": "0nana",
  "101": "start",
  "251": "om_hyaku",
  "681": "om_04",
  "682": "om_04_2",
  "683": "om_04_3",
  "684": "om_04_4",
  "685": "om_04_5",
  "686": "om_04_6",
  "687": "om_04_7",
  "688": "om_04_8",
  "689": "om_04_9",
  "691": "mama_1st_01",
  "692": "mama_1st_01_a",
  "693": "mama_1st_01_b",
  "694": "mama_1st_02_a",
  "695": "mama_1st_02_b",
  "696": "mama_1st_03",
  "697": "mama_1st_03_a",
  "698": "mama_1st_03_b",
  "699": "mama_1st_04",
  "701": "om_04_11",
  "702": "om_04_12",
  "703": "om_04_13",
  "704": "om_04_14",
  "705": "om_04_15",
  "706": "om_04_16",
  "707": "om_04_17",
  "721": "sakura0",
  "741": "nendo0",
  "742": "nendo0_01",
  "743": "nendo0_02",
  "744": "nendo1",
  "746": "nendo_new",
  "751": "sindou0",
  "752": "sindou0_a",
  "753": "sindou0_b",
  "754": "sindou1",
  "901": "boss",
  "911": "nana_s01",
  "912": "nana_s02",
  "913": "nana_s03",
  "914": "nana_s04",
  "915": "nana_s05",
  "916": "nana_s06",
  "917": "nana_s07",
  "918": "nana_s08",
  "919": "nana_s09",
  "920": "nana_s10",
  "921": "nana_s11",
  "922": "nana_s12",
  "923": "nana_s13",
  "924": "nana_s14",
  "925": "nana_s15",
  "926": "nana_s16",
  "931": "hika_s01",
  "932": "hika_s02",
  "933": "hika_s03",
  "934": "hika_s04",
  "935": "hika_s05",
  "936": "hika_s06",
  "937": "hika_s07",
  "938": "hika_s08",
  "939": "hika_s09",
  "940": "hika_s10",
  "941": "hika_s11",
  "942": "hika_s12",
  "943": "hika_s13",
  "944": "hika_s14",
  "945": "hika_s15",
  "946": "hika_s16",
  "951": "suzu_s01",
  "952": "suzu_s02",
  "953": "suzu_s03",
  "954": "suzu_s04",
  "955": "suzu_s05",
  "956": "suzu_s06",
  "957": "suzu_s07",
  "958": "suzu_s08",
  "959": "suzu_s09",
  "960": "suzu_s10",
  "961": "suzu_s11",
  "962": "suzu_s12",
  "963": "suzu_s13",
  "964": "suzu_s14",
  "965": "suzu_s15",
  "966": "suzu_s16",
  "971": "tae_s01",
  "972": "tae_s02",
  "973": "tae_s03",
  "974": "tae_s04",
  "975": "tae_s05",
  "976": "tae_s06",
  "977": "tae_s07",
  "978": "tae_s08",
  "979": "tae_s09",
  "980": "tae_s10",
  "981": "tae_s11",
  "982": "tae_s12",
  "983": "tae_s13",
  "984": "tae_s14",
  "985": "tae_s15",
  "986": "tae_s16",
  "1001": "0nana_00",
  "1002": "0nana_00_01",
  "1003": "0nana_00_02",
  "1004": "0nana_01",
  "1005": "0nana_02",
  "1006": "0nana_03",
  "1008": "0nana_00_0_1",
  "1009": "0nana_00_0_0",
  "1011": "0nana_04_chuu",
  "1101": "01nana01_01",
  "1102": "01nana01_01_01",
  "1103": "01nana01_02",
  "1104": "01nana01_02_00",
  "1105": "01nana01_02_01",
  "1106": "01nana01_03",
  "1107": "01nana01_04",
  "1108": "01nana01_04_01",
  "1109": "01nana01_04_02",
  "1110": "01nana01_05",
  "1111": "01nana01_05_01",
  "1112": "01nana01_06",
  "1121": "01nana02_01",
  "1122": "01nana02_01_01",
  "1123": "01nana02_01_02",
  "1124": "01nana02_01_02_01",
  "1125": "01nana02_01_02_02",
  "1126": "01nana02_02",
  "1127": "01nana02_03",
  "1128": "01nana02_04",
  "1131": "01nana03_01",
  "1132": "01nana03_01_01",
  "1133": "01nana03_01_02",
  "1134": "01nana03_01_02_01",
  "1135": "01nana03_02",
  "1136": "01nana03_02_01",
  "1137": "01nana03_02_02",
  "1138": "01nana03_03",
  "1139": "01nana03_03_01",
  "1140": "01nana03_03_02",
  "1141": "01nana03_04",
  "1142": "01nana03_05",
  "1143": "01nana03_06",
  "1144": "01nana03_06_01",
  "1145": "01nana03_06_02",
  "1146": "01nana03_07",
  "1147": "01nana03_06_0",
  "1148": "01nana03_03_00",
  "1151": "01nana04_01",
  "1152": "01nana04_01_01",
  "1153": "01nana04_01_02",
  "1154": "01nana04_02",
  "1155": "01nana04_03",
  "1156": "01nana04_04",
  "1157": "01nana04_05",
  "1158": "01nana04_06",
  "1159": "01nana04_05_00",
  "1161": "01nana05_01",
  "1162": "01nana05_02",
  "1171": "01nana06_01",
  "1172": "01nana06_01_01",
  "1173": "01nana06_01_02",
  "1174": "01nana06_02",
  "1181": "01nana07_01",
  "1182": "01nana07_01_01",
  "1183": "01nana07_01_02",
  "1184": "01nana07_02",
  "1186": "01nana08_01",
  "1187": "01nana10_01",
  "1188": "01nana20_01",
  "1189": "01nana22_01",
  "1190": "01nana25_01",
  "1191": "01nana08_02",
  "1192": "01nana10_02",
  "1203": "1nana_03",
  "1204": "1nana_03_1",
  "1211": "1nana_04",
  "1212": "1nana_04_1",
  "1213": "1nana_04_2",
  "1214": "1nana_04_0",
  "1251": "nana_kara",
  "2001": "0hika_01",
  "2002": "0hika_01_01",
  "2003": "0hika_01_02",
  "2011": "hika_child_01",
  "2012": "hika_child_01_01",
  "2013": "hika_child_01_02",
  "2101": "hika_01_01",
  "2102": "hika_01_01a",
  "2103": "hika_01_01b",
  "2104": "hika_01_02",
  "2111": "hika_02_01",
  "2112": "hika_02_02",
  "2113": "hika_02_03",
  "2114": "hika_02_04",
  "2119": "hika_02_015",
  "2120": "hika_02_015e",
  "2121": "hika_03_01",
  "2122": "hika_03_01a",
  "2123": "hika_03_01b",
  "2124": "hika_03_02",
  "2125": "hika_03_02a",
  "2126": "hika_03_02b",
  "2127": "hika_03_03",
  "2128": "hika_03_03a",
  "2129": "hika_03_03b",
  "2130": "hika_03_04",
  "2131": "hika_04_01",
  "2132": "hika_04_02",
  "2133": "hika_04_02a",
  "2134": "hika_04_02b",
  "2135": "hika_04_03",
  "2136": "hika_04_04",
  "2137": "hika_04_04a",
  "2138": "hika_04_04b",
  "2139": "hika_04_05",
  "2140": "hika_04_05a",
  "2141": "hika_04_05b",
  "2142": "hika_04_06",
  "2143": "hika_04_07",
  "2148": "hika_04_040a",
  "2149": "hika_04_040b",
  "2150": "hika_04_045",
  "2151": "hika_05_01",
  "2152": "hika_05_01a",
  "2153": "hika_05_01b",
  "2154": "hika_05_02",
  "2155": "hika_05_02a",
  "2156": "hika_05_02b",
  "2157": "hika_05_03",
  "2158": "hika_05_04",
  "2161": "hika_06_01",
  "2162": "hika_06_02",
  "2163": "hika_06_03",
  "2164": "hika_06_03a",
  "2165": "hika_06_03b",
  "2166": "hika_06_04",
  "2167": "hika_06_05",
  "2168": "hika_06_05a",
  "2169": "hika_06_05b",
  "2170": "hika_06_06",
  "2171": "hika_07_01",
  "2172": "hika_07_02",
  "2181": "hika_08_01",
  "2182": "hika_08_01a",
  "2183": "hika_08_01b",
  "2184": "hika_08_02",
  "2191": "hika_09_01",
  "2192": "hika_09_01a",
  "2193": "hika_09_01b",
  "2194": "hika_09_02",
  "2201": "hika_10_01",
  "2202": "hika_10_02",
  "2203": "hika_10_03",
  "2211": "hika_11_01",
  "2212": "hika_11_02",
  "2221": "hika_12_01",
  "2231": "hika_13_01",
  "2232": "hika_13_02",
  "2233": "hika_13_03",
  "2241": "hika_14_01",
  "2242": "hika_14_02",
  "2251": "hika_ep_01",
  "3001": "00suzuk",
  "3002": "00suzuk1_01",
  "3003": "00suzuk1_02",
  "3004": "00suzuk2_01",
  "3005": "00suzuk2_02",
  "3006": "00suzuk2_02_1",
  "3007": "00suzuk3",
  "3008": "00suzuk3_1",
  "3009": "00suzuk3_2",
  "3010": "00suzuk4",
  "3011": "00suzuk4_1",
  "3012": "00suzuk4_2",
  "3013": "00suzuk5",
  "3014": "00suzuk2_02_0",
  "3015": "00suzuk2_02_0_1",
  "3016": "00suzuk3_0",
  "3017": "00suzuk5_0",
  "3021": "00suzuk1_01_0",
  "3101": "01suzug",
  "3111": "01suzug01",
  "3112": "01suzug02",
  "3113": "01suzug02_01",
  "3114": "01suzug03",
  "3115": "01suzug03_01",
  "3116": "01suzug03_02",
  "3117": "01suzug04",
  "3118": "01suzug05",
  "3119": "01suzug06",
  "3121": "02suzug01",
  "3122": "02suzug01_01",
  "3123": "02suzug01_02",
  "3124": "02suzug02",
  "3125": "02suzug03",
  "3126": "02suzug04",
  "3127": "02suzug03_0",
  "3128": "02suzug03_1",
  "3131": "03suzug01",
  "3132": "03suzug01_01",
  "3133": "03suzug01_02",
  "3134": "03suzug02",
  "3135": "03suzug03",
  "3136": "03suzug01_00",
  "3141": "04suzug01",
  "3142": "04suzug01_01",
  "3143": "04suzug01_02",
  "3144": "04suzug02",
  "3145": "04suzug02_01",
  "3146": "04suzug02_02",
  "3147": "04suzug03",
  "3148": "04suzug04",
  "3151": "05suzug01",
  "3152": "05suzug01_01",
  "3153": "05suzug01_02",
  "3154": "05suzug02",
  "3155": "05suzug02_01",
  "3156": "05suzug02_02",
  "3157": "05suzug03",
  "3158": "05suzug02_00",
  "3161": "06suzug01",
  "3162": "06suzug01_01",
  "3163": "06suzug01_02",
  "3164": "06suzug02",
  "3171": "07suzug01",
  "3172": "07suzug01_01",
  "3173": "07suzug01_02",
  "3174": "07suzug02",
  "3181": "08suzug01",
  "3182": "08suzug01_01",
  "3183": "08suzug01_02",
  "3184": "08suzug02",
  "3191": "09suzug01",
  "3192": "09suzug01_01",
  "3193": "09suzug01_02",
  "3194": "09suzug02",
  "3195": "09suzug02_01",
  "3196": "09suzug02_02",
  "3197": "09suzug03",
  "3198": "09suzug04",
  "3201": "10suzug01",
  "3202": "10suzug01_01",
  "3203": "10suzug01_02",
  "3204": "10suzug02",
  "3211": "11suzug_01",
  "3213": "11suzug02_ero",
  "3215": "11suzug03_eroa",
  "3217": "11suzug_01_01",
  "3218": "11suzug_01_02",
  "3219": "11suzug_02",
  "3221": "12suzug",
  "3223": "11suzug_02_01",
  "3224": "11suzug_02_02",
  "3225": "11suzug_03",
  "3227": "12suzug_01",
  "3228": "12suzug_02",
  "3229": "12suzug2",
  "3231": "13suzug_e",
  "3232": "13suzug_e2",
  "3241": "14suzug",
  "3301": "0miso_child",
  "3311": "miso01",
  "3312": "miso01_1a",
  "3313": "miso01_1b",
  "3314": "miso01_2",
  "3321": "miso02",
  "3322": "miso02_1a",
  "3323": "miso02_2",
  "3324": "miso02_3a",
  "3325": "miso02_3b",
  "3326": "miso02_4",
  "3331": "miso03",
  "3332": "miso03_1a",
  "3333": "miso03_1b",
  "3334": "miso03_2",
  "3335": "miso03_3a",
  "3336": "miso03_3b",
  "3337": "miso03_4",
  "3341": "miso04",
  "3342": "miso04_1a",
  "3343": "miso04_1b",
  "3344": "miso04_1c",
  "3345": "miso04_2",
  "3351": "miso05",
  "3352": "miso05_1a",
  "3353": "miso05_1b",
  "3354": "miso05_2",
  "3355": "miso05_3a",
  "3356": "miso05_3b",
  "3357": "miso05_4",
  "3361": "miso06",
  "3362": "miso06_1a",
  "3363": "miso06_1b",
  "3364": "miso06_2",
  "3371": "miso07",
  "3372": "miso07_1a",
  "3373": "miso07_1b",
  "3374": "miso07_2",
  "3381": "miso08",
  "3391": "miso09",
  "3401": "miso10",
  "3411": "miso11",
  "3412": "miso11g",
  "3413": "miso11b",
  "3414": "miso_ep_b",
  "3415": "miso11b_1",
  "3416": "miso11g_1",
  "3421": "miso12g",
  "3431": "miso_ep_g",
  "4001": "tae_kako_01",
  "4101": "tae_01day_01",
  "4102": "tae_01day_02",
  "4103": "tae_01day_03",
  "4104": "tae_01day_03_a",
  "4105": "tae_01day_03_b",
  "4106": "tae_01day_04",
  "4107": "tae_01day_025",
  "4121": "tae_02day_01",
  "4122": "tae_02day_01_a",
  "4123": "tae_02day_01_b",
  "4124": "tae_02day_02",
  "4125": "tae_02day_02_a",
  "4126": "tae_02day_02_b",
  "4127": "tae_02day_03",
  "4128": "tae_02day_03_a",
  "4129": "tae_02day_03_b",
  "4130": "tae_02day_04",
  "4131": "tae_02day_05",
  "4133": "tae_02day_01_0_a",
  "4134": "tae_02day_01_0_b",
  "4135": "tae_02day_01_01",
  "4141": "tae_03day_01",
  "4142": "tae_03day_02",
  "4161": "tae_04day_01",
  "4162": "tae_04day_01_a",
  "4163": "tae_04day_01_b",
  "4164": "tae_04day_02",
  "4166": "tae_04day_01_1_a",
  "4167": "tae_04day_01_1_b",
  "4168": "tae_04day_01_2",
  "4181": "tae_05day_01",
  "4182": "tae_05day_01_a",
  "4183": "tae_05day_01_b",
  "4184": "tae_05day_02",
  "4185": "tae_05day_02_a",
  "4186": "tae_05day_02_b",
  "4187": "tae_05day_02_c",
  "4188": "tae_05day_02_d",
  "4189": "tae_05day_03",
  "4201": "tae_06day_01",
  "4202": "tae_06day_02",
  "4203": "tae_06day_02_a",
  "4204": "tae_06day_02_b",
  "4221": "tae_07day_01",
  "4222": "tae_07day_02",
  "4241": "tae_08day_01",
  "4261": "tae_09day_01",
  "4262": "tae_09day_01_a",
  "4263": "tae_09day_01_b",
  "4264": "tae_09day_02",
  "4265": "tae_09day_03",
  "4281": "tae_10day_01",
  "4282": "tae_10day_01_a",
  "4283": "tae_10day_01_b",
  "4284": "tae_10day_02",
  "4285": "tae_10day_02_a",
  "4286": "tae_10day_02_b",
  "4287": "tae_10day_02_c",
  "4289": "tae_10day_01_1a",
  "4290": "tae_10day_01_1b",
  "4301": "tae_11day_01",
  "4302": "tae_11day_01_a",
  "4303": "tae_11day_01_b",
  "4304": "tae_11day_01_c",
  "4305": "tae_11day_02",
  "4321": "tae_12day_01",
  "4322": "tae_12day_02",
  "4323": "tae_12day_02_a",
  "4324": "tae_12day_02_b",
  "4325": "tae_12day_02_c",
  "4326": "tae_12day_02_d",
  "4327": "tae_12day_03",
  "4328": "tae_12day_03_a",
  "4329": "tae_12day_03_b",
  "4330": "tae_12day_03_c",
  "4331": "tae_12day_03_d",
  "4332": "tae_12day_04",
  "4333": "tae_12day_04_a",
  "4334": "tae_12day_04_b",
  "4335": "tae_12day_04_c",
  "4336": "tae_12day_04_d",
  "4337": "tae_12day_05",
  "4338": "tae_12day_05_a",
  "4339": "tae_12day_05_b",
  "4340": "tae_12day_05_c",
  "4341": "tae_12day_05_d",
  "4342": "tae_12day_06",
  "4343": "tae_12day_06_a",
  "4344": "tae_12day_06_b",
  "4345": "tae_12day_07",
  "4346": "tae_12day_07_a",
  "4347": "tae_12day_07_b",
  "4348": "tae_12day_08",
  "4350": "tae_12day_10",
  "4361": "tae_13day_01",
  "4601": "tae_after",
  "5001": "0saku_01",
  "5101": "1saku_01",
  "5102": "1saku_02",
  "5103": "1saku_03",
  "5104": "1saku_04",
  "5105": "1saku_05",
  "5106": "1saku_06",
  "5107": "1saku_07_ep",
  "5108": "1saku_08_kara",
  "5109": "1saku_09_kara",
  "5110": "1saku_10_kara",
  "5121": "1saku_03_0a",
  "5122": "1saku_03_0b",
  "5123": "1saku_03_1",
  "5124": "1saku_03_2a",
  "5125": "1saku_03_3",
  "5131": "1saku_03_4a",
  "5132": "1saku_03_4b",
  "5133": "1saku_03_5",
  "5135": "1saku_03_6a",
  "5136": "1saku_03_6b",
  "5137": "1saku_03_7",
  "5141": "1saku_04_1a",
  "5142": "1saku_04_2",
  "5143": "1saku_04_3a",
  "5144": "1saku_04_3b",
  "5145": "1saku_04_4",
  "5146": "1saku_04_5a",
  "5147": "1saku_04_5b",
  "5148": "1saku_04_6",
  "5201": "1saku_b_ep_kara",
  "6000": "saku_s01",
  "6001": "saku_s02",
  "6002": "saku_s03",
  "6003": "saku_s04",
  "6004": "saku_s05",
  "6005": "saku_s06",
  "6006": "saku_s07",
  "6007": "saku_s08",
  "6008": "saku_s09",
  "6009": "saku_s10",
  "6010": "saku_s11",
  "6011": "saku_s12",
  "6012": "saku_s13",
  "6013": "saku_s14",
  "6014": "saku_s15",
  "6015": "saku_s16",
  "6020": "miso_s01",
  "6021": "miso_s02",
  "6022": "miso_s03",
  "6023": "miso_s04",
  "6024": "miso_s05",
  "6025": "miso_s06",
  "6026": "miso_s07",
  "6027": "miso_s08",
  "6028": "miso_s09",
  "6029": "miso_s10",
  "6030": "miso_s11",
  "6031": "miso_s12",
  "6032": "miso_s13",
  "6033": "miso_s14",
  "6034": "miso_s15",
  "6035": "miso_s16"
}