00000000=1_bg_127_sp
00000001=1_na01
00000002=1_na02
00000003=2_bg_203n-a
00000004=bg_sp03
00000005=bg_sp05
00000006=bike_01
00000007=bike_02
00000008=day_716
00000009=day_717
0000000A=e_nobu_win
0000000B=gameover_01
0000000C=gohan_hika_b1
0000000D=gohan_hika_b12
0000000E=gohan_hika_b2
0000000F=gohan_hika_b3
00000010=gohan_hika_curry1
00000011=gohan_hika_curry2
00000012=gohan_hika_tom1
00000013=gohan_hika_tom2
00000014=gohan_m_06
00000015=gohan_s02
00000016=gohan_suzu_b1
00000017=gohan_suzu_b2
00000018=gohan_suzu_f1
00000019=gohan_suzu_f2
0000001A=hikae_t01_01
0000001B=hikae_t01_02
0000001C=hikae_t02_01
0000001D=hikae_t02_02
0000001E=hikae_t03_01
0000001F=hikae_t03_02
00000020=hikah_2200_c
00000021=hikah_2200_d
00000022=hika_2010
00000023=hika_2010_b
00000024=hika_2020_a
00000025=hika_2020_b
00000026=hika_2020_c
00000027=hika_2030
00000028=hika_2040
00000029=hika_2050_a
0000002A=hika_2050_b
0000002B=hika_2050_c
0000002C=hika_2050_d
0000002D=hika_2050_e
0000002E=hika_2050_f
0000002F=hika_2060
00000030=hika_2060b
00000031=hika_2060c
00000032=hika_2070_a
00000033=hika_2070_b
00000034=hika_2080_a
00000035=hika_2080_am
00000036=hika_2080_bm
00000037=hika_2080_cm
00000038=hika_2080_d
00000039=hika_2090_a
0000003A=hika_2100_a
0000003B=hika_2100_b
0000003C=hika_2100_c
0000003D=hika_2100_d
0000003E=hika_2110
0000003F=hika_2120
00000040=hika_2120_d
00000041=hika_2140
00000042=hika_2140c
00000043=hika_2150
00000044=hika_2160
00000045=hika_2170a
00000046=hika_2170b
00000047=hika_dakishime
00000048=hika_madogoshi
00000049=ima5310
0000004A=ima_5010
0000004B=ima_5010b
0000004C=ima_5020
0000004D=ima_5030
0000004E=ima_5030_b
0000004F=ima_5040
00000050=ima_5040c
00000051=ima_5040s
00000052=ima_5040_b
00000053=ima_5041
00000054=ima_5041b
00000055=ima_5042
00000056=ima_5043
00000057=ima_5050_a
00000058=ima_5050_b
00000059=ima_5050_c
0000005A=ima_5050_d
0000005B=ima_5060_a1
0000005C=ima_5060_a2
0000005D=ima_5060_a3
0000005E=ima_5060_a4
0000005F=ima_5060_b1
00000060=ima_5061
00000061=ima_5065
00000062=ima_5066
00000063=ima_5070
00000064=ima_5070a
00000065=ima_5080
00000066=ima_5090
00000067=ima_5100
00000068=ima_5100_sp
00000069=ima_5110
0000006A=ima_5120
0000006B=ima_5120_02
0000006C=ima_5130
0000006D=ima_5130_b
0000006E=ima_5140_b
0000006F=ima_5150
00000070=ima_5160
00000071=ima_5170
00000072=ima_5180
00000073=ima_5180_b
00000074=ima_5190_a
00000075=ima_5220
00000076=ima_5220d
00000077=ima_5230
00000078=ima_5240_02
00000079=ima_6010
0000007A=ima_ken
0000007B=ima_nanami2
0000007C=jaja_kanna01
0000007D=jaja_kanna02
0000007E=jaja_kanna03
0000007F=jaja_kanna04
00000080=ja_00
00000081=ja_01
00000082=ja_02
00000083=ja_03
00000084=ja_04
00000085=ja_05
00000086=ja_06
00000087=ja_07
00000088=ja_08
00000089=ja_09
0000008A=ja_10
0000008B=ja_11
0000008C=ja_12
0000008D=ja_13
0000008E=ja_14
0000008F=ja_15
00000090=ja_16
00000091=ja_17
00000092=ja_18
00000093=ja_19
00000094=ja_20
00000095=ja_21
00000096=ja_22
00000097=ja_23
00000098=ja_24
00000099=ja_26
0000009A=ja_27
0000009B=ja_28
0000009C=ja_29
0000009D=ja_30
0000009E=ja_31
0000009F=ja_32
000000A0=ja_33
000000A1=ja_34
000000A2=ja_35
000000A3=ja_36
000000A4=ja_37
000000A5=ja_38
000000A6=ja_39
000000A7=m0715
000000A8=m0716
000000A9=m0717
000000AA=mama_6110
000000AB=mama_6120
000000AC=mama_6130a
000000AD=mama_sp01b
000000AE=mama_sp01c
000000AF=mama_sp02
000000B0=mesi_0
000000B1=mesi_papa1
000000B2=mesi_suzu1
000000B3=mesi_suzu3
000000B4=mesi_suzu4
000000B5=mesi_suzu5
000000B6=mesi_suzu8
000000B7=misomesi_02
000000B8=misomesi_10
000000B9=misomesi_11
000000BA=miso_7010_03
000000BB=miso_7010_05
000000BC=miso_7010_11
000000BD=miso_7010_12
000000BE=miso_7010_13
000000BF=miso_7010_16
000000C0=miso_7010_18
000000C1=miso_7010_21
000000C2=miso_7010_22
000000C3=miso_7010_23
000000C4=miso_7010_26
000000C5=miso_7010_30
000000C6=miso_7020_01
000000C7=miso_7020_02
000000C8=miso_7020_04
000000C9=miso_7020_05
000000CA=miso_7030_01
000000CB=miso_7030_02
000000CC=miso_7030_04
000000CD=miso_7030_05
000000CE=miso_7030_07
000000CF=miso_7030_10
000000D0=miso_7040_01
000000D1=miso_7040_03
000000D2=miso_7040_04
000000D3=miso_7050_46
000000D4=miso_7050_48
000000D5=miso_7050_49
000000D6=miso_7050_50
000000D7=miso_7050_51
000000D8=miso_7050_54
000000D9=miso_7050_59
000000DA=miso_7060_01
000000DB=miso_7060_02
000000DC=miso_7060_04
000000DD=miso_7060_05
000000DE=miso_7060_06
000000DF=miso_7060_07
000000E0=miso_7060_08
000000E1=miso_7060_09
000000E2=miso_7070_01
000000E3=miso_7070_09
000000E4=miso_7070_18
000000E5=miso_7070_20
000000E6=miso_7070_22
000000E7=miso_7070_26
000000E8=miso_7070_29
000000E9=miso_7070_31
000000EA=miso_7080_01
000000EB=miso_7080_03
000000EC=miso_7080_05
000000ED=miso_7080_06
000000EE=miso_7080_07
000000EF=miso_7090_01
000000F0=miso_7090_03
000000F1=miso_7090_05
000000F2=miso_7090_06
000000F3=miso_7090_07
000000F4=miso_7090_09
000000F5=miso_7100_01
000000F6=miso_7100_02
000000F7=miso_end
000000F8=miso_im01e
000000F9=miso_im01f
000000FA=miso_im02a
000000FB=miso_im02c
000000FC=miso_im02e
000000FD=miso_im02f
000000FE=miso_im02h
000000FF=miso_im02j
00000100=miso_im03a
00000101=miso_im03b
00000102=miso_im04a
00000103=miso_im04b
00000104=nana_1010_a1
00000105=nana_1010_a4
00000106=nana_1010_b1
00000107=nana_1010_b4
00000108=nana_1010_b6
00000109=nana_1010_c4
0000010A=nana_1010_d1
0000010B=nana_1020
0000010C=nana_1020_a
0000010D=nana_1030
0000010E=nana_1040
0000010F=nana_1040a3
00000110=nana_1040a4
00000111=nana_1040_b1
00000112=nana_1040_b2
00000113=nana_1050
00000114=nana_1050_b
00000115=nana_1060_01
00000116=nana_1080
00000117=nana_1080b
00000118=nana_1080c
00000119=nana_1080d
0000011A=nana_1080e
0000011B=nana_1080f
0000011C=nana_1090_01
0000011D=nana_1090_02
0000011E=nana_1110_a
0000011F=nana_1110_b
00000120=nana_1115
00000121=nana_1115_1
00000122=nana_1120
00000123=nana_1120_1_a01
00000124=nana_1120_1_a04
00000125=nana_1120_2_a01
00000126=nana_1120_2_a03
00000127=nana_1120_2_b03
00000128=nana_1120_b
00000129=nana_1120_c
0000012A=nana_1120_d
0000012B=nana_1120_e
0000012C=nana_1121
0000012D=nana_1122
0000012E=nana_1130a
0000012F=nana_1130_02
00000130=nana_1140b
00000131=nana_1140_sp
00000132=nana_1140_sp02
00000133=nana_1150_01
00000134=nana_1150_02
00000135=nana_1170
00000136=nana_1170a
00000137=nana_1180
00000138=nana_1190
00000139=nana_1190c
0000013A=nana_1190d
0000013B=nana_1200
0000013C=nana_1200b
0000013D=nana_1210
0000013E=nana_1210a
0000013F=nana_1210b
00000140=nana_1220
00000141=nana_1220_c
00000142=nana_1230_01
00000143=nana_1230_01b
00000144=nana_1230_01c
00000145=nana_1230_01d
00000146=nana_1230_02
00000147=nana_1230_02b
00000148=nana_1240
00000149=nana_1250
0000014A=nana_1250b2
0000014B=nana_1250c
0000014C=nana_1251b2
0000014D=nana_1251c
0000014E=nana_1251c2
0000014F=nana_1370
00000150=nana_1380
00000151=nana_last01
00000152=nana_last02
00000153=nana_last03
00000154=nana_last04
00000155=nana_last05
00000156=nana_new01
00000157=nana_new02
00000158=nana_new03
00000159=nana_new04
0000015A=nana_new05
0000015B=nana_sp01_a
0000015C=nana_sp01_b1
0000015D=nana_sp01_b2
0000015E=nana_sp01_b3
0000015F=nana_sp01_b4
00000160=nana_sp01_c
00000161=nana_sp02_01
00000162=nana_sp02_02
00000163=nana_sp02_03
00000164=nana_sp02_04
00000165=nana_sp040
00000166=nana_sp05
00000167=nana_sp05_01
00000168=nana_sp05_02
00000169=nana_sp06_01
0000016A=nana_sp06_01b
0000016B=nana_sp06_01c
0000016C=nana_sp06_01d
0000016D=nana_sp07
0000016E=nana_sp07_x1
0000016F=nana_sp07_x2
00000170=nana_sp11
00000171=nana_sp12_01
00000172=nana_sp13
00000173=nana_sp14
00000174=nana_sp15
00000175=nana_sp18
00000176=nana_sp21_b
00000177=nana_sp21_c
00000178=nana_t01_06
00000179=na_su_mesi01m
0000017A=na_su_mesi02m
0000017B=na_su_mesi03m
0000017C=na_su_mesi04m
0000017D=na_su_mesi06m
0000017E=nendo_01
0000017F=nendo_06
00000180=nendo_07
00000181=nendo_08
00000182=nendo_09
00000183=nendo_10
00000184=nendo_11
00000185=nendo_12
00000186=nendo_13
00000187=nendo_14
00000188=nendo_15
00000189=nendo_16
0000018A=nendo_17
0000018B=nendo_18
0000018C=nendo_19
0000018D=nendo_20
0000018E=nendo_21
0000018F=nendo_22
00000190=nendo_23
00000191=nendo_24
00000192=nendo_25
00000193=nendo_26
00000194=nendo_27
00000195=nendo_28
00000196=nendo_29
00000197=nendo_31
00000198=nendo_32
00000199=nendo_33
0000019A=nendo_33_2
0000019B=nendo_33_3
0000019C=nendo_34
0000019D=nendo_35
0000019E=nendo_36
0000019F=nendo_37
000001A0=nendo_38
000001A1=nendo_39
000001A2=nendo_40
000001A3=nendo_40_2
000001A4=netu_t_tae01b
000001A5=nn_japanmap
000001A6=nn_pre_01
000001A7=nn_pre_02
000001A8=nn_pre_03
000001A9=n_ending01
000001AA=n_ending02
000001AB=n_ev_kaikon1
000001AC=n_ev_kaikon2
000001AD=n_ev_kunren
000001AE=n_ev_win
000001AF=n_le1
000001B0=n_le1_nob_hide
000001B1=n_le2
000001B2=n_le2_majinob
000001B3=n_le2_nob_hide
000001B4=n_le_nobunaga
000001B5=n_pre_01
000001B6=n_pre_04
000001B7=n_ufo_nob_hide
000001B8=n_w_hide
000001B9=n_w_nob
000001BA=n_w_nob3_hide
000001BB=n_w_nob_hide
000001BC=n_w_nob_hide_kabuto
000001BD=n_w_nob_hide_kuroda
000001BE=n_w_nob_hide_yoroi
000001BF=n_w_nob_kuro
000001C0=n_w_nob_mit
000001C1=n_w_nob_mit3
000001C2=n_w_nob_mitup
000001C3=n_w_nob_mit_eve
000001C4=n_w_nob_syo
000001C5=n_w_nob_syo_none
000001C6=n_w_nob_syo_ponken
000001C7=n_w_nob_take01
000001C8=n_w_nob_take02
000001C9=n_w_nob_take03
000001CA=omake_6410a
000001CB=omake_6410a1
000001CC=omake_6410b_04
000001CD=omake_6410c
000001CE=op-fix
000001CF=ope_suzu
000001D0=ope_suzu_s
000001D1=papa_mesi
000001D2=pearl_1
000001D3=pearl_2
000001D4=room
000001D5=sakue01
000001D6=sakue02
000001D7=sakue03
000001D8=sakue05
000001D9=sakue06
000001DA=sakue07
000001DB=sakue08
000001DC=sakue09
000001DD=sakue10
000001DE=sakue11
000001DF=sakue12
000001E0=sakue13
000001E1=sakue14b
000001E2=sakue14c
000001E3=sakue14d
000001E4=sakue15
000001E5=sakue16b
000001E6=sakue19
000001E7=sakue20
000001E8=sakue21a
000001E9=sakue21b
000001EA=sakue21c
000001EB=sakue21d
000001EC=sakue22a
000001ED=sakue22b
000001EE=sakue22c
000001EF=sakue23
000001F0=sakue30
000001F1=sakue31d
000001F2=sakue32a
000001F3=sakue32b
000001F4=sakue33
000001F5=sakue34
000001F6=sakue34b
000001F7=sakue35
000001F8=saku_6010
000001F9=saku_6020_a
000001FA=saku_6020_b
000001FB=saku_last
000001FC=saku_t01_01
000001FD=saku_t01_02
000001FE=saku_t02_04
000001FF=saku_t02_05
00000200=saku_t03
00000201=saku_t04_05
00000202=saku_t04_08
00000203=saku_t04_13
00000204=saku_t04_14
00000205=saku_t04_15
00000206=saku_t05_01
00000207=saku_t05_02
00000208=saku_t05_03
00000209=saku_t05_04
0000020A=saku_t05_08
0000020B=saku_t06_13
0000020C=saku_t06_15
0000020D=saku_t06_16
0000020E=saku_t06_21
0000020F=saku_t06_22
00000210=saku_t06_23
00000211=saku_t07_01
00000212=saku_t07_02
00000213=saku_t08
00000214=saku_t08s2
00000215=saku_t09_01
00000216=saku_t09_02
00000217=saku_t10_01
00000218=saku_t10_03
00000219=saku_t11_a_01
0000021A=saku_t11_a_02
0000021B=saku_t12_03
0000021C=saku_t12_04
0000021D=sp_telop
0000021E=sst_0
0000021F=sst_1
00000220=sst_2
00000221=sst_3
00000222=star_0
00000223=star_2
00000224=suzue_t01_02
00000225=suzue_t01_04
00000226=suzu_1
00000227=suzu_3010_a
00000228=suzu_3020_a
00000229=suzu_3020_a2
0000022A=suzu_3020_a_1
0000022B=suzu_3020_a_2
0000022C=suzu_3020_b2
0000022D=suzu_3020_b_1
0000022E=suzu_3020_b_2
0000022F=suzu_3030
00000230=suzu_3040_b1
00000231=suzu_3040_b1s
00000232=suzu_3040_b2
00000233=suzu_3050_b
00000234=suzu_3060_b1
00000235=suzu_3060_b2
00000236=suzu_3060_b3
00000237=suzu_3060_b4
00000238=suzu_3080_07m
00000239=suzu_3080_09m
0000023A=suzu_3080_10m
0000023B=suzu_3090_a
0000023C=suzu_3090_b
0000023D=suzu_3100_b1
0000023E=suzu_3100_b2
0000023F=suzu_3110_a
00000240=suzu_3110_a1
00000241=suzu_3120
00000242=suzu_3120_1n
00000243=suzu_3130_b
00000244=suzu_3140e
00000245=suzu_3140i
00000246=suzu_t2_a
00000247=suzu_t2_b
00000248=suzu_t2_c
00000249=suzu_title
0000024A=taee_t01_01
0000024B=taee_t01_02
0000024C=taee_t01_03
0000024D=taee_t01_04
0000024E=taee_t02_01
0000024F=taee_t02_02
00000250=taee_t03
00000251=taeh_4200_a
00000252=taeh_4200_b
00000253=taeh_4200_d
00000254=tae_4010
00000255=tae_4020_a
00000256=tae_4020_b
00000257=tae_4030
00000258=tae_4030b
00000259=tae_4040
0000025A=tae_4040b
0000025B=tae_4050
0000025C=tae_4060_a
0000025D=tae_4060_a2
0000025E=tae_4060_a3
0000025F=tae_4060_b
00000260=tae_4060_c
00000261=tae_4060_d
00000262=tae_4090
00000263=tae_4090_b
00000264=tae_4100_a
00000265=tae_4100_b
00000266=tae_4100_c
00000267=tae_4110
00000268=tae_4120b
00000269=tae_4130
0000026A=tae_4140c
0000026B=tae_4140d
0000026C=tae_4140f
0000026D=tae_sp02
0000026E=tae_sp04
0000026F=taihei
00000270=taiheinob_hide
00000271=taihei_nob_hide_hanma
00000272=title_hika
00000273=title_miso
00000274=title_nana
00000275=title_saku
00000276=title_sindo_c
00000277=title_tae
00000278=w_tyupa
00000279=hanabi_02054
0000027A=hanabi_02067
0000027B=hanabi_02075
0000027C=tae_sp05
0000027D=2_bg_234m
0000027E=gameover_02
0000027F=nana_1111
00000280=tae_sp01c
00000281=tae_sp01d
00000282=nana_1050_f
00000283=nana_1050_f02
00000284=nana_1060_01_f
00000285=suzu_3030_ago
000002BC=1_bg_101d
000002BD=1_bg_101e
000002BE=1_bg_101n
000002BF=1_bg_101na
000002C0=1_bg_102d
000002C1=1_bg_102e
000002C2=1_bg_102n
000002C3=1_bg_102na
000002C4=1_bg_103d
000002C5=1_bg_103e
000002C6=1_bg_103n
000002C7=1_bg_104d
000002C8=1_bg_104n-2
000002C9=1_bg_105d
000002CA=1_bg_105e
000002CB=1_bg_105n
000002CC=1_bg_106d
000002CD=1_bg_106e
000002CE=1_bg_106n-2
000002CF=1_bg_107d
000002D0=1_bg_107e
000002D1=1_bg_107n
000002D2=1_bg_108d
000002D3=1_bg_108e
000002D4=1_bg_108n-2
000002D5=1_bg_109d
000002D6=1_bg_109e
000002D7=1_bg_110d
000002D8=1_bg_110e
000002D9=1_bg_110n-2
000002DA=1_bg_111d
000002DB=1_bg_111e
000002DC=1_bg_111n-1
000002DD=1_bg_111n-2
000002DE=1_bg_112d
000002DF=1_bg_112e
000002E0=1_bg_116d
000002E1=1_bg_116n
000002E2=1_bg_116na
000002E3=1_bg_116s_an
000002E4=1_bg_117d
000002E5=1_bg_117e
000002E6=1_bg_117n-1
000002E7=1_bg_117n-2
000002E8=1_bg_118d
000002E9=1_bg_118e
000002EA=1_bg_119d
000002EB=1_bg_119e
000002EC=1_bg_120--n
000002ED=1_bg_120d
000002EE=1_bg_120e
000002EF=1_bg_120n
000002F0=1_bg_121d
000002F1=1_bg_121e
000002F2=1_bg_121n-1
000002F3=1_bg_121n-2
000002F4=1_bg_122d
000002F5=1_bg_122e
000002F6=1_bg_122n
000002F7=1_bg_123d
000002F8=1_bg_123e
000002F9=1_bg_123n
000002FA=1_bg_124d
000002FB=1_bg_125d
000002FC=1_bg_125e
000002FD=1_bg_125n-1
000002FE=1_bg_126d
000002FF=1_bg_126n
00000300=1_bg_127d
00000301=1_bg_129
00000302=1_bg_141d
00000303=1_bg_142d
00000304=1_bg_142e
00000305=1_bg_142n
00000306=1_bg_142s
00000307=1_bg_143d
00000308=1_bg_144d
00000309=1_bg_145d
0000030A=1_bg_145e
0000030B=1_bg_146d
0000030C=1_bg_147d-1
0000030D=1_bg_147d-2
0000030E=1_bg_147e-1
0000030F=1_bg_147e-2
00000310=1_bg_147e-3
00000311=1_bg_147e-4
00000312=1_bg_147e-5
00000313=1_bg_147e-6
00000314=1_bg_148d
00000315=1_bg_148da2
00000316=1_bg_149d
00000317=1_bg_149n
00000318=1_bg_150d
00000319=1_bg_151n
0000031A=1_bg_152na
0000031B=2_bg_203d-01
0000031C=2_bg_203d-01a
0000031D=2_bg_203d-02
0000031E=2_bg_203d-03
0000031F=2_bg_203e-01
00000320=2_bg_203n-01
00000321=2_bg_203n-01a
00000322=2_bg_203n-02
00000323=2_bg_203n-03
00000324=2_bg_203n-08
00000325=2_bg_204d
00000326=2_bg_204e
00000327=2_bg_204n-1
00000328=2_bg_204n-2
00000329=2_bg_205d
0000032A=2_bg_205e
0000032B=2_bg_205n
0000032C=2_bg_206d
0000032D=2_bg_206n
0000032E=2_bg_207d
0000032F=2_bg_207d2
00000330=2_bg_207d3
00000331=2_bg_207d4
00000332=2_bg_207d5
00000333=2_bg_207ds
00000334=2_bg_207e-1
00000335=2_bg_207n-1
00000336=2_bg_207n-1s
00000337=2_bg_207n-2
00000338=2_bg_207n-3
00000339=2_bg_207n-4
0000033A=2_bg_207n-7
0000033B=2_bg_208d
0000033C=2_bg_208n
0000033D=2_bg_209d
0000033E=2_bg_209da
0000033F=2_bg_209e-1
00000340=2_bg_209e-2
00000341=2_bg_209n-1
00000342=2_bg_209n-2
00000343=2_bg_209n-2s
00000344=2_bg_209n-3
00000345=2_bg_209_01
00000346=2_bg_209_01b
00000347=2_bg_209_02
00000348=2_bg_209_02b
00000349=2_bg_209_06
0000034A=2_bg_209_07
0000034B=2_bg_209_09
0000034C=2_bg_210n-1
0000034D=2_bg_213d
0000034E=2_bg_213e-1
0000034F=2_bg_213n-1
00000350=2_bg_221d
00000351=2_bg_221e
00000352=2_bg_222d
00000353=2_bg_222e
00000354=2_bg_222n
00000355=2_bg_223d
00000356=2_bg_224d
00000357=2_bg_224n-1
00000358=2_bg_224n-2
00000359=2_bg_231d
0000035A=2_bg_231pd
0000035B=2_bg_231pe
0000035C=2_bg_232d
0000035D=2_bg_232e
0000035E=2_bg_233d
0000035F=2_bg_233e
00000360=2_bg_234d
00000361=2_bg_234dm
00000362=2_bg_234e
00000363=2_bg_235d
00000364=2_bg_235e
00000365=2_bg_236d
00000366=2_bg_237d
00000367=2_bg_237e
00000368=2_bg_238
00000369=2_bg_238n
0000036A=2_bg_239
0000036B=2_bg_251d
0000036C=2_bg_252n
0000036D=4_bg_401
0000036E=4_bg_401m
0000036F=4_bg_402m
00000370=4_bg_403
00000371=4_bg_403m
00000372=4_bg_411d
00000373=4_bg_412d
00000374=4_bg_412d2
00000375=4_bg_413d
00000376=4_bg_413e
00000377=4_bg_413n-1
00000378=4_bg_413n-2
00000379=4_bg_414d
0000037A=4_bg_414e-1
0000037B=4_bg_414e-2
0000037C=4_bg_414n-1
0000037D=4_bg_414n-2
0000037E=4_bg_414s-1
0000037F=4_bg_414s-2
00000380=4_bg_414s-3
00000381=4_bg_414s-4
00000382=4_bg_414s-5
00000383=4_bg_414s-9
00000384=4_bg_450
00000385=4_saku
00000386=bg_120ima
00000387=bg_120imay
00000388=bg_120_0828
00000389=bg_120_0829
0000038A=bg_120_0830
0000038B=bg_120_0831
0000038C=black
0000038D=black2
0000038E=haru_bg001s
0000038F=haru_bg001s_na2
00000390=red
00000391=white
00000392=05d
00000393=05e
00000394=05n
00000395=06d
00000396=06e
00000397=06n
00000398=07d
00000399=07e
0000039A=07n
0000039B=08d
0000039C=08e
0000039D=08n
0000039E=09d
0000039F=09e
000003A0=09n
000003A1=10d
000003A2=10e
000003A3=10n
000003A4=11d
000003A5=11e
000003A6=11n
000003A7=12d
000003A8=12e
000003A9=12n
000003AA=13d
000003AB=13e
000003AC=13n
000003AD=14d
000003AE=14e
000003AF=14n
000003B0=15d
000003B1=15e
000003B2=15n
000003B3=16d
000003B4=16n
000003B5=17d
000003B6=19d
000003B7=20d
000003B8=21d
000003B9=21n
000003BA=22d
000003BB=22n
000003BC=25d
000003BD=25n
000003BE=days123
000003BF=days124
000003C0=days4
000003C1=days7
000003C2=days8
000003C3=days801
000003C4=days802
000003C5=days803
000003C6=days813
000003C7=days830
000003C8=days907
000003C9=days914
000003CA=day_0725
000003CB=day_0808
000003CC=day_0816
000003CD=day_0831
00000407=staff_00
00000408=staff_01
00000409=staff_02
0000040A=staff_03
0000040B=staff_04
0000040C=staff_05
0000040D=staff_06
0000040E=staff_07
0000040F=staff_08
00000410=staff_09
00000411=staff_10
00000412=staff_11
00000413=staff_12
00000414=staff_13
00000415=staff_14
00000424=a01
00000425=a03
00000426=b02
00000427=b03
00000428=fhakon1_01
00000429=fhakon1_07
0000042A=fhakon1_08
0000042B=fhakon1_09
0000042C=fhakon1_11
0000042D=fhakon1_13
0000042E=fhakon1_14
0000042F=fhakon2_06
00000430=fhakon2_09
00000431=fhakon2_10
00000432=fhakon3_05
00000433=fhakon3_06
00000434=fhakon3_07
00000435=fhakon3_10
00000436=fhakon3_11
00000437=fhakon3_17
00000438=fhakon4_06
00000439=fhakon4_17
0000043A=hata1_1n_a01
0000043B=hata1_1n_a02
0000043C=hata1_1n_a03
0000043D=hata1_1n_a04
0000043E=hata1_1n_a05
0000043F=hata1_1n_a06
00000440=hata1_1n_b01
00000441=hata1_1n_b02
00000442=hata1_1n_b03
00000443=hata1_1n_b04
00000444=hata1_1n_b05
00000445=hata1_1n_b06
00000446=hata1_1n_c01
00000447=hata1_1n_c02
00000448=hata1_1n_c03
00000449=hata1_1n_c04
0000044A=hata1_1n_c05
0000044B=hata1_1n_c06
0000044C=hata2_1n_a04
0000044D=hata2_1n_a05
0000044E=hata2_1n_b01
0000044F=hata2_1n_b02
00000450=hata2_1n_b03
00000451=hata2_1n_b05
00000452=hata2_1n_b06
00000453=hata2_1n_c02
00000454=hata3_1n_a01
00000455=hata3_1n_a04
00000456=hata3_1n_a05
00000457=hata3_1n_a06
00000458=hata3_1n_b01
00000459=hata3_1n_b03
0000045A=hata3_1n_b05
0000045B=hata3_1n_b06
0000045C=hata3_1n_c02
0000045D=hata3_1n_c04
0000045E=hata3_1n_c05
0000045F=hika1_0n_a01
00000460=hika1_0n_a02
00000461=hika1_0n_a03
00000462=hika1_0n_a04
00000463=hika1_0n_a05
00000464=hika1_0n_a07
00000465=hika1_0n_b01
00000466=hika1_0n_b02
00000467=hika1_0n_b03
00000468=hika1_0n_b04
00000469=hika1_0n_b06
0000046A=hika1_0n_b07
0000046B=hika1_1n_a01
0000046C=hika1_1n_a02
0000046D=hika1_1n_a03
0000046E=hika1_1n_a04
0000046F=hika1_1n_a05t
00000470=hika1_1n_a06
00000471=hika1_1n_a07t
00000472=hika1_1n_a08
00000473=hika1_1n_a09
00000474=hika1_1n_a10
00000475=hika1_1n_a11
00000476=hika1_1n_a11t
00000477=hika1_1n_a13
00000478=hika1_1n_a14
00000479=hika1_1n_a15
0000047A=hika1_1n_b01
0000047B=hika1_1n_b02
0000047C=hika1_1n_b03
0000047D=hika1_1n_b04
0000047E=hika1_1n_b06
0000047F=hika1_1n_b07t
00000480=hika1_1n_b08
00000481=hika1_1n_b09
00000482=hika1_1n_b10
00000483=hika1_1n_b11
00000484=hika1_1n_b12
00000485=hika1_1n_b14
00000486=hika1_1n_b15
00000487=hika1_1n_c01
00000488=hika1_1n_c02
00000489=hika1_1n_c03
0000048A=hika1_1n_c04
0000048B=hika1_1n_c08
0000048C=hika1_1n_c09
0000048D=hika1_1n_c10
0000048E=hika1_1n_c11
0000048F=hika1_1n_c15
00000490=hika1_1s_a01
00000491=hika1_1s_a05
00000492=hika1_1s_a09
00000493=hika1_1s_a12
00000494=hika1_1s_a13
00000495=hika1_1s_b01
00000496=hika1_1s_b02
00000497=hika1_1s_b03
00000498=hika1_1s_b05
00000499=hika1_1s_b09
0000049A=hika1_1s_b12
0000049B=hika1_1s_b16
0000049C=hika1_1s_c05
0000049D=hika1_2n_a01
0000049E=hika1_2n_a15
0000049F=hika1_2n_b01
000004A0=hika1_3n_a01
000004A1=hika1_3n_a01e
000004A2=hika1_3n_a02
000004A3=hika1_3n_a02e
000004A4=hika1_3n_a03
000004A5=hika1_3n_a03e
000004A6=hika1_3n_a04
000004A7=hika1_3n_a06
000004A8=hika1_3n_a06e
000004A9=hika1_3n_a06et
000004AA=hika1_3n_a06t
000004AB=hika1_3n_a07
000004AC=hika1_3n_a08
000004AD=hika1_3n_a08e
000004AE=hika1_3n_a09
000004AF=hika1_3n_a09e
000004B0=hika1_3n_a10
000004B1=hika1_3n_a10e
000004B2=hika1_3n_a11
000004B3=hika1_3n_a11e
000004B4=hika1_3n_a11et
000004B5=hika1_3n_a12
000004B6=hika1_3n_a12e
000004B7=hika1_3n_a14
000004B8=hika1_3n_a15
000004B9=hika1_3n_b01
000004BA=hika1_3n_b01e
000004BB=hika1_3n_b02
000004BC=hika1_3n_b02e
000004BD=hika1_3n_b03
000004BE=hika1_3n_b03e
000004BF=hika1_3n_b04
000004C0=hika1_3n_b06
000004C1=hika1_3n_b07
000004C2=hika1_3n_b07e
000004C3=hika1_3n_b07t
000004C4=hika1_3n_b08
000004C5=hika1_3n_b08e
000004C6=hika1_3n_b09
000004C7=hika1_3n_b09e
000004C8=hika1_3n_b10
000004C9=hika1_3n_b10e
000004CA=hika1_3n_b11
000004CB=hika1_3n_b11e
000004CC=hika1_3n_b12
000004CD=hika1_3n_b15
000004CE=hika1_3n_c01
000004CF=hika1_3n_c02
000004D0=hika1_3n_c03
000004D1=hika1_3n_c04
000004D2=hika1_3n_c06
000004D3=hika1_3n_c08
000004D4=hika1_3n_c09
000004D5=hika1_3n_c10
000004D6=hika1_3n_c11
000004D7=hika1_3s_a11t
000004D8=hika1_3s_a13t
000004D9=hika1_3s_b05
000004DA=hika1_3s_b09
000004DB=hika1_3s_b13
000004DC=hika1_3s_c14t
000004DD=hika1_4n_a01
000004DE=hika1_4n_a02
000004DF=hika1_4n_a03
000004E0=hika1_4n_a04
000004E1=hika1_4n_a06
000004E2=hika1_4n_a06t
000004E3=hika1_4n_a08
000004E4=hika1_4n_a09
000004E5=hika1_4n_a09t
000004E6=hika1_4n_a10
000004E7=hika1_4n_a10t
000004E8=hika1_4n_a11
000004E9=hika1_4n_a11t
000004EA=hika1_4n_a12
000004EB=hika1_4n_a14
000004EC=hika1_4n_a15
000004ED=hika1_4n_b01
000004EE=hika1_4n_b02
000004EF=hika1_4n_b03
000004F0=hika1_4n_b04
000004F1=hika1_4n_b06
000004F2=hika1_4n_b08
000004F3=hika1_4n_b09
000004F4=hika1_4n_b10
000004F5=hika1_4n_b11
000004F6=hika1_4n_b12
000004F7=hika1_4n_b14
000004F8=hika1_4n_b15
000004F9=hika1_4n_c01
000004FA=hika1_4n_c02
000004FB=hika1_4n_c03
000004FC=hika1_4n_c04
000004FD=hika1_4n_c08
000004FE=hika1_4n_c09
000004FF=hika1_4n_c10
00000500=hika1_4n_c11
00000501=hika1_4n_c15
00000502=hika1_5n_a01
00000503=hika1_5n_a02
00000504=hika1_5n_a03
00000505=hika1_5n_a04
00000506=hika1_5n_a06
00000507=hika1_5n_a07
00000508=hika1_5n_a08
00000509=hika1_5n_a09
0000050A=hika1_5n_a10
0000050B=hika1_5n_a11
0000050C=hika1_5n_a12
0000050D=hika1_5n_a13
0000050E=hika1_5n_a15
0000050F=hika1_5n_b01
00000510=hika1_5n_b02
00000511=hika1_5n_b03
00000512=hika1_5n_b04
00000513=hika1_5n_b06
00000514=hika1_5n_b06t
00000515=hika1_5n_b08
00000516=hika1_5n_b09
00000517=hika1_5n_b10
00000518=hika1_5n_b11
00000519=hika1_5n_b12
0000051A=hika1_5n_b13
0000051B=hika1_5n_b14
0000051C=hika1_5n_b15
0000051D=hika1_5n_c01
0000051E=hika1_5n_c02
0000051F=hika1_5n_c03
00000520=hika1_5n_c04
00000521=hika1_5n_c05
00000522=hika1_5n_c06
00000523=hika1_5n_c08
00000524=hika1_5n_c09
00000525=hika1_5n_c11
00000526=hika1_5n_c12
00000527=hika1_6n_a01
00000528=hika1_6n_a02
00000529=hika1_6n_a03
0000052A=hika1_6n_a04
0000052B=hika1_6n_a05
0000052C=hika1_6n_a06
0000052D=hika1_6n_a08
0000052E=hika1_6n_a09
0000052F=hika1_6n_a10
00000530=hika1_6n_a10t
00000531=hika1_6n_a11
00000532=hika1_6n_a14
00000533=hika1_6n_a15
00000534=hika1_6n_a17
00000535=hika1_6n_b01
00000536=hika1_6n_b02
00000537=hika1_6n_b04
00000538=hika1_6n_b06
00000539=hika1_6n_b08
0000053A=hika1_6n_b09
0000053B=hika1_6n_b10
0000053C=hika1_6n_b10t
0000053D=hika1_6n_b11
0000053E=hika1_6n_b12
0000053F=hika1_6n_b14
00000540=hika1_6n_b17
00000541=hika1_6n_b18
00000542=hika1_6n_c01
00000543=hika1_6n_c02
00000544=hika1_6n_c03
00000545=hika1_6n_c08
00000546=hika1_6n_c09
00000547=hika1_6n_c13
00000548=hika1_6n_c16
00000549=hika1_6n_c17
0000054A=hika1_6n_c18
0000054B=hika2_0n_a01
0000054C=hika2_0n_a02
0000054D=hika2_0n_a03
0000054E=hika2_0n_a04
0000054F=hika2_0n_b07
00000550=hika2_1n_a01
00000551=hika2_1n_a02
00000552=hika2_1n_a03
00000553=hika2_1n_a04
00000554=hika2_1n_a08
00000555=hika2_1n_a09
00000556=hika2_1n_a10
00000557=hika2_1n_a15
00000558=hika2_1n_b01
00000559=hika2_1n_b02
0000055A=hika2_1n_b03
0000055B=hika2_1n_b04
0000055C=hika2_1n_b08
0000055D=hika2_1n_b09
0000055E=hika2_1n_b11
0000055F=hika2_1n_b12
00000560=hika2_1n_b15
00000561=hika2_1n_c01
00000562=hika2_1n_c04
00000563=hika2_1n_c09
00000564=hika2_1n_c11
00000565=hika2_1n_c15
00000566=hika2_1s_a01
00000567=hika2_1s_a03
00000568=hika2_1s_a10
00000569=hika2_3n_a01
0000056A=hika2_3n_a02
0000056B=hika2_3n_a03
0000056C=hika2_3n_a04
0000056D=hika2_3n_a08
0000056E=hika2_3n_a09
0000056F=hika2_3n_b01
00000570=hika2_3n_b02
00000571=hika2_3n_b03
00000572=hika2_3n_b04
00000573=hika2_3n_b08
00000574=hika2_3n_b09
00000575=hika2_3n_b10t
00000576=hika2_3n_b12
00000577=hika2_3n_c01
00000578=hika2_3n_c03
00000579=hika2_3n_c04
0000057A=hika2_3n_c11
0000057B=hika2_3n_c12
0000057C=hika2_3s_a14
0000057D=hika2_3s_a14t
0000057E=hika2_3s_b12
0000057F=hika2_3s_b13
00000580=hika2_3s_c14
00000581=hika2_4n_a07
00000582=hika2_4n_a12
00000583=hika2_4n_b06
00000584=hika2_5n_a01
00000585=hika2_5n_a02
00000586=hika2_5n_a03
00000587=hika2_5n_a06
00000588=hika2_5n_a09
00000589=hika2_5n_a09t
0000058A=hika2_5n_a11
0000058B=hika2_5n_a14
0000058C=hika2_5n_a15
0000058D=hika2_5n_b01
0000058E=hika2_5n_b02
0000058F=hika2_5n_b03
00000590=hika2_5n_b06
00000591=hika2_5n_b06t
00000592=hika2_5n_b07t
00000593=hika2_5n_b09
00000594=hika2_5n_b11
00000595=hika2_5n_b12
00000596=hika2_5n_b13
00000597=hika2_5n_b15
00000598=hika2_5n_c01
00000599=hika2_5n_c02
0000059A=hika2_5n_c03
0000059B=hika2_5n_c05
0000059C=hika2_5n_c11
0000059D=hika3_1n_a01
0000059E=hika3_1n_a03
0000059F=hika3_1n_a05
000005A0=hika3_1n_a06
000005A1=hika3_1n_a08
000005A2=hika3_1n_a09
000005A3=hika3_1n_b01
000005A4=hika3_1n_b02
000005A5=hika3_1n_b03
000005A6=hika3_1n_b06t
000005A7=hika3_1n_b08
000005A8=hika3_1n_b09
000005A9=hika3_1n_b10t
000005AA=hika3_1n_c02
000005AB=hika3_1n_c03
000005AC=hika3_1n_c04
000005AD=hika3_1n_c07t
000005AE=hika3_1n_c08
000005AF=hika3_1n_c09
000005B0=hika3_1n_c11
000005B1=hika3_1s_a03
000005B2=hika3_1s_a09
000005B3=hika3_1s_a10
000005B4=hika3_1s_a13
000005B5=hika3_1s_b12
000005B6=hika3_1s_c02
000005B7=hika3_3n_a01
000005B8=hika3_3n_a02
000005B9=hika3_3n_a03
000005BA=hika3_3n_a06t
000005BB=hika3_3n_a08
000005BC=hika3_3n_a09
000005BD=hika3_3n_a09n
000005BE=hika3_3n_a10
000005BF=hika3_3n_a11
000005C0=hika3_3n_a12
000005C1=hika3_3n_a13
000005C2=hika3_3n_a15t
000005C3=hika3_3n_b01
000005C4=hika3_3n_b01n
000005C5=hika3_3n_b02
000005C6=hika3_3n_b03
000005C7=hika3_3n_b04
000005C8=hika3_3n_b06t
000005C9=hika3_3n_b07
000005CA=hika3_3n_b07t
000005CB=hika3_3n_b08
000005CC=hika3_3n_b09
000005CD=hika3_3n_b09n
000005CE=hika3_3n_b10
000005CF=hika3_3n_b11
000005D0=hika3_3n_b12
000005D1=hika3_3n_b12t
000005D2=hika3_3n_b13
000005D3=hika3_3n_b15
000005D4=hika3_3n_c01
000005D5=hika3_3n_c02
000005D6=hika3_3n_c03
000005D7=hika3_3n_c04
000005D8=hika3_3n_c07
000005D9=hika3_3n_c09
000005DA=hika3_3n_c11
000005DB=hika3_3s_a13
000005DC=hika3_4n_a01
000005DD=hika3_4n_a03
000005DE=hika3_4n_a06
000005DF=hika3_4n_a07t
000005E0=hika3_4n_a08
000005E1=hika3_4n_a09
000005E2=hika3_4n_a09t
000005E3=hika3_4n_a12
000005E4=hika3_4n_a13
000005E5=hika3_4n_a14
000005E6=hika3_4n_a15
000005E7=hika3_4n_b01
000005E8=hika3_4n_b02
000005E9=hika3_4n_b03
000005EA=hika3_4n_b04
000005EB=hika3_4n_b06t
000005EC=hika3_4n_b10t
000005ED=hika3_4n_b11
000005EE=hika3_4n_b12
000005EF=hika3_4n_b14
000005F0=hika3_4n_b15
000005F1=hika3_4n_c01
000005F2=hika3_4n_c02
000005F3=hika3_4n_c06t
000005F4=hika3_4n_c08
000005F5=hika3_4n_c09
000005F6=kanna1_01
000005F7=kanna1_02
000005F8=kanna1_03
000005F9=kanna1_2_a01
000005FA=kanna1_2_a02
000005FB=kanna1_2_a03
000005FC=kanna1_2_a04
000005FD=kanna2_01
000005FE=kanna2_02
000005FF=kanna3_02
00000600=mama1_1n_a01
00000601=mama1_1n_a02
00000602=mama1_1n_a05
00000603=mama1_1n_a06
00000604=mama1_1n_b01
00000605=mama1_1n_b02
00000606=mama1_1n_b05
00000607=mama1_1n_b06
00000608=mama1_1n_c01
00000609=mama1_1n_c02
0000060A=mama1_1n_c06
0000060B=mama1_2n_a01
0000060C=mama1_2n_a02
0000060D=mama1_2n_a03
0000060E=mama1_2n_a04
0000060F=mama1_2n_a05
00000610=mama1_2n_a06
00000611=mama1_2n_a07
00000612=mama1_2n_b01
00000613=mama1_2n_b02
00000614=mama1_2n_b03
00000615=mama1_2n_b05
00000616=mama1_2n_b06
00000617=mama1_2n_b07
00000618=mama1_2n_c01
00000619=mama1_2n_c02
0000061A=mama1_2n_c05
0000061B=mama2_2n_a01
0000061C=mama2_2n_a05
0000061D=mama2_2n_a06
0000061E=mama2_2n_b01
0000061F=mama2_2n_b02
00000620=mama2_2n_b05
00000621=mama2_2n_c01
00000622=mama2_2n_c02
00000623=mama3_1n_a01
00000624=mama3_1n_b02
00000625=mama3_1n_c01
00000626=miso1_01a01
00000627=miso1_01a03
00000628=miso1_01a05
00000629=miso1_01a11
0000062A=miso1_01a13
0000062B=miso1_01a24
0000062C=miso1_01a30
0000062D=miso1_01b05
0000062E=miso1_01b11
0000062F=miso1_01b16
00000630=miso1_01b19
00000631=miso1_01b28
00000632=miso1_01c01
00000633=miso1_01c08
00000634=miso1_01c20
00000635=miso1_01c21
00000636=miso1_01c25
00000637=miso1_01c28
00000638=miso1_01d05
00000639=miso1_01d11
0000063A=miso1_01d19
0000063B=miso1_01d21
0000063C=miso1_01d22
0000063D=miso1_01d28
0000063E=miso1_03a01
0000063F=miso1_03a02
00000640=miso1_03a03
00000641=miso1_03a06
00000642=miso1_03a08
00000643=miso1_03a08t
00000644=miso1_03a10
00000645=miso1_03a11
00000646=miso1_03a13
00000647=miso1_03a16
00000648=miso1_03a17
00000649=miso1_03a19
0000064A=miso1_03a20
0000064B=miso1_03a21
0000064C=miso1_03a24
0000064D=miso1_03a25
0000064E=miso1_03a27
0000064F=miso1_03a28
00000650=miso1_03a30
00000651=miso1_03b01
00000652=miso1_03b02
00000653=miso1_03b03
00000654=miso1_03b05
00000655=miso1_03b06
00000656=miso1_03b08
00000657=miso1_03b10
00000658=miso1_03b11
00000659=miso1_03b13
0000065A=miso1_03b15
0000065B=miso1_03b16
0000065C=miso1_03b19
0000065D=miso1_03b20
0000065E=miso1_03b24
0000065F=miso1_03b25
00000660=miso1_03b27
00000661=miso1_03b27t
00000662=miso1_03b28
00000663=miso1_03b30
00000664=miso1_03c01
00000665=miso1_03c02
00000666=miso1_03c03
00000667=miso1_03c03t
00000668=miso1_03c05
00000669=miso1_03c08
0000066A=miso1_03c10
0000066B=miso1_03c11
0000066C=miso1_03c13
0000066D=miso1_03c14
0000066E=miso1_03c15
0000066F=miso1_03c16
00000670=miso1_03c19
00000671=miso1_03c20
00000672=miso1_03c21
00000673=miso1_03c21t
00000674=miso1_03c24
00000675=miso1_03c24t
00000676=miso1_03c25
00000677=miso1_03c27
00000678=miso1_03c28
00000679=miso1_03c30
0000067A=miso1_03d01
0000067B=miso1_03d02
0000067C=miso1_03d03
0000067D=miso1_03d08
0000067E=miso1_03d10
0000067F=miso1_03d11
00000680=miso1_03d16
00000681=miso1_03d19
00000682=miso1_03d20
00000683=miso1_03d25
00000684=miso1_03e19
00000685=miso1_04a01
00000686=miso1_04a02
00000687=miso1_04a03
00000688=miso1_04a06
00000689=miso1_04a08
0000068A=miso1_04a10
0000068B=miso1_04a11
0000068C=miso1_04a13
0000068D=miso1_04a16
0000068E=miso1_04a19
0000068F=miso1_04a28
00000690=miso1_04b01
00000691=miso1_04b05
00000692=miso1_04b10
00000693=miso1_04b19
00000694=miso1_04b20
00000695=miso1_04b24
00000696=miso1_04b25
00000697=miso1_04b27
00000698=miso1_04c01
00000699=miso1_04c02
0000069A=miso1_04c03
0000069B=miso1_04c06
0000069C=miso1_04c10
0000069D=miso1_04c13
0000069E=miso1_04c28
0000069F=miso1_04d01
000006A0=miso1_04d10
000006A1=miso1_04d11
000006A2=miso1_05a13
000006A3=miso1_05a27
000006A4=miso1_05b01
000006A5=miso1_05b02
000006A6=miso1_05b05
000006A7=miso1_05b11
000006A8=miso1_05b15t
000006A9=miso1_05b16t
000006AA=miso1_05b25
000006AB=miso1_05b27
000006AC=miso1_05b30t
000006AD=miso1_05c03
000006AE=miso1_05c11
000006AF=miso1_05c15
000006B0=miso1_05c16t
000006B1=miso1_05c19
000006B2=miso1_05c20t
000006B3=miso1_05c24
000006B4=miso1_05c27
000006B5=miso1_05d16
000006B6=miso1_07a13
000006B7=miso1_07a25
000006B8=miso1_07b08
000006B9=miso1_07b13
000006BA=miso1_07b15
000006BB=miso1_07b16
000006BC=miso1_07b17
000006BD=miso1_07b22
000006BE=miso1_07b25
000006BF=miso1_07b27
000006C0=miso1_07c01
000006C1=miso1_07c11
000006C2=miso1_07c13
000006C3=miso1_07c15
000006C4=miso1_07c16
000006C5=miso1_07c17t
000006C6=miso1_07c19
000006C7=miso1_07c20
000006C8=miso1_07c24
000006C9=miso1_07c25
000006CA=miso1_07c28
000006CB=miso1_07c28t
000006CC=miso1_07d01
000006CD=miso1_07d11
000006CE=miso1_07d17
000006CF=miso1_07d19
000006D0=miso1_07d25
000006D1=miso1_07d27
000006D2=miso1_08b01
000006D3=miso1_08b02
000006D4=miso1_08b03
000006D5=miso1_08b13
000006D6=miso1_08b16
000006D7=miso1_08b24
000006D8=miso1_08c01
000006D9=miso1_08c02
000006DA=miso1_08c05
000006DB=miso1_08c08
000006DC=miso1_08c19
000006DD=miso1_08c28
000006DE=miso1_09a01
000006DF=miso1_09a02
000006E0=miso1_09a08t
000006E1=miso1_09a18
000006E2=miso1_09a26
000006E3=miso1_09a28t
000006E4=miso1_09b01
000006E5=miso1_09b02
000006E6=miso1_09b03
000006E7=miso1_09b05
000006E8=miso1_09b08
000006E9=miso1_09b24
000006EA=miso1_09b25
000006EB=miso1_09b27
000006EC=miso1_09c01
000006ED=miso1_09c03
000006EE=miso1_09c03t
000006EF=miso1_09c04
000006F0=miso1_09c08
000006F1=miso1_09c08t
000006F2=miso1_09c18
000006F3=miso1_09c27
000006F4=miso1_09c28
000006F5=miso1_09c28t
000006F6=miso1_09c30
000006F7=miso1_09c30t
000006F8=miso1_09d20
000006F9=miso1_09d28
000006FA=miso1_09f03
000006FB=miso1_09f08
000006FC=miso1_09f30
000006FD=miso1_09g03
000006FE=miso1_09g05
000006FF=miso1_09g21
00000700=miso1_10a01
00000701=miso1_10a02
00000702=miso1_10a20
00000703=miso1_10b01
00000704=miso1_10b03
00000705=miso1_10b08
00000706=miso1_10b10
00000707=miso1_10b11
00000708=miso1_10b19
00000709=miso1_10b20
0000070A=miso1_10b22
0000070B=miso1_10b25
0000070C=miso1_10b27
0000070D=miso1_10b28
0000070E=miso1_10b30
0000070F=miso1_10c01
00000710=miso1_10c03
00000711=miso1_10c05
00000712=miso1_10c06
00000713=miso1_10c10
00000714=miso1_10c11
00000715=miso1_10c16
00000716=miso1_10c21
00000717=miso1_10c25
00000718=miso1_10c28
00000719=miso1_10f01
0000071A=miso1_10f13
0000071B=miso1_10f21
0000071C=miso1_10g19
0000071D=miso1_10g21
0000071E=miso1_11a01
0000071F=miso1_11a02
00000720=miso1_11a03
00000721=miso1_11a06
00000722=miso1_11a10
00000723=miso1_11a11
00000724=miso1_11a13
00000725=miso1_11a16
00000726=miso1_11a19
00000727=miso1_11a20
00000728=miso1_11a21
00000729=miso1_11a24
0000072A=miso1_11a25
0000072B=miso1_11a28
0000072C=miso1_11a30
0000072D=miso1_11b01
0000072E=miso1_11b02
0000072F=miso1_11b03
00000730=miso1_11b05
00000731=miso1_11b08
00000732=miso1_11b10
00000733=miso1_11b11
00000734=miso1_11b13
00000735=miso1_11b16
00000736=miso1_11b19
00000737=miso1_11b20
00000738=miso1_11b21
00000739=miso1_11b24
0000073A=miso1_11b25
0000073B=miso1_11b27
0000073C=miso1_11b28
0000073D=miso1_11c01
0000073E=miso1_11c02
0000073F=miso1_11c03
00000740=miso1_11c05
00000741=miso1_11c10
00000742=miso1_11c11
00000743=miso1_11c13
00000744=miso1_11c16
00000745=miso1_11c19
00000746=miso1_11c20
00000747=miso1_11c21
00000748=miso1_11c22
00000749=miso1_11c24
0000074A=miso1_11c25
0000074B=miso1_11c27
0000074C=miso1_11c28
0000074D=miso1_11d01
0000074E=miso1_11d02
0000074F=miso1_11d03
00000750=miso1_11d06
00000751=miso1_11d10
00000752=miso1_11d11
00000753=miso1_11d16
00000754=miso1_11d17
00000755=miso1_11d18
00000756=miso1_11d19
00000757=miso1_11d20
00000758=miso1_11d22
00000759=miso1_11d24
0000075A=miso1_11d25
0000075B=miso1_11d27
0000075C=miso1_11d28
0000075D=miso1_11d30
0000075E=miso2_03a01
0000075F=miso2_03a02
00000760=miso2_03a08
00000761=miso2_03a10
00000762=miso2_03a11
00000763=miso2_03a13
00000764=miso2_03a16
00000765=miso2_03a19
00000766=miso2_03a21
00000767=miso2_03a25
00000768=miso2_03a28
00000769=miso2_03a30
0000076A=miso2_03b01
0000076B=miso2_03b02
0000076C=miso2_03b03
0000076D=miso2_03b05
0000076E=miso2_03b16
0000076F=miso2_03b19
00000770=miso2_03b20
00000771=miso2_03b21
00000772=miso2_03b25
00000773=miso2_03b27
00000774=miso2_03c01
00000775=miso2_03c03
00000776=miso2_03c05
00000777=miso2_03c08
00000778=miso2_03c11
00000779=miso2_03c16
0000077A=miso2_03c19
0000077B=miso2_03c21
0000077C=miso2_03c28
0000077D=miso2_05a01
0000077E=miso2_05a28
0000077F=miso2_05b01
00000780=miso2_05b03
00000781=miso2_05b10
00000782=miso2_05c11
00000783=miso2_05c20
00000784=miso2_05d01
00000785=miso2_05d02
00000786=miso2_05d03
00000787=miso2_05d11
00000788=miso2_09a01
00000789=miso2_09a08
0000078A=miso2_09a28
0000078B=miso2_09c08
0000078C=miso2_09c28
0000078D=miso2_09c30
0000078E=miso2_10a01
0000078F=miso2_10a11
00000790=miso2_10a16
00000791=miso2_10a21
00000792=miso2_10a24
00000793=miso2_10a25
00000794=miso2_10a27
00000795=miso2_10a28
00000796=miso2_10b01
00000797=miso2_10b11
00000798=miso2_10b13
00000799=miso2_10b25
0000079A=miso2_10b27
0000079B=miso2_10c11
0000079C=miso2_10c16
0000079D=miso2_10c19
0000079E=miso2_10c21
0000079F=miso2_10d27
000007A0=miso2_10f01
000007A1=miso2_10f02
000007A2=miso2_10f03
000007A3=miso2_10f11
000007A4=miso2_10f16
000007A5=miso2_10f19
000007A6=miso2_10f20
000007A7=miso2_10f25
000007A8=miso2_10f27
000007A9=miso2_10g13
000007AA=miso2_10g16
000007AB=miso2_10g21
000007AC=miso2_10g27
000007AD=miso2_11a01
000007AE=miso2_11a13
000007AF=miso2_11a19
000007B0=miso2_11a28
000007B1=miso2_11a30
000007B2=miso2_11b01
000007B3=miso2_11b02
000007B4=miso2_11b03
000007B5=miso2_11b05
000007B6=miso2_11b11
000007B7=miso2_11b13
000007B8=miso2_11b16
000007B9=miso2_11b19
000007BA=miso2_11b24
000007BB=miso2_11b25
000007BC=miso2_11b27
000007BD=miso2_11b28
000007BE=miso2_11b30
000007BF=miso2_11c01
000007C0=miso2_11c02
000007C1=miso2_11c13
000007C2=miso2_11c19
000007C3=miso2_11c20
000007C4=miso2_11c25
000007C5=miso2_11c27
000007C6=miso2_11c28
000007C7=miso2_11c30
000007C8=miso3_01a03
000007C9=miso3_01a16
000007CA=miso3_01a28
000007CB=miso3_01b01
000007CC=miso3_01b02
000007CD=miso3_01c01
000007CE=miso3_01c02
000007CF=miso3_01c03
000007D0=miso3_01d01
000007D1=miso3_01d03
000007D2=miso3_03a01
000007D3=miso3_03a02
000007D4=miso3_03a08
000007D5=miso3_03a08t
000007D6=miso3_03a10
000007D7=miso3_03a11
000007D8=miso3_03a13
000007D9=miso3_03a16
000007DA=miso3_03a20
000007DB=miso3_03a24
000007DC=miso3_03a28
000007DD=miso3_03a30
000007DE=miso3_03b01
000007DF=miso3_03b02
000007E0=miso3_03b03
000007E1=miso3_03b05
000007E2=miso3_03b11
000007E3=miso3_03b13
000007E4=miso3_03b15
000007E5=miso3_03b16
000007E6=miso3_03b19
000007E7=miso3_03b20
000007E8=miso3_03b21
000007E9=miso3_03b25
000007EA=miso3_03b27
000007EB=miso3_03b28
000007EC=miso3_03c01
000007ED=miso3_03c02
000007EE=miso3_03c03
000007EF=miso3_03c05
000007F0=miso3_03c10
000007F1=miso3_03c13
000007F2=miso3_03c16
000007F3=miso3_03c19
000007F4=miso3_03c20
000007F5=miso3_03c25
000007F6=miso3_03c28
000007F7=miso3_03c28t
000007F8=miso3_03c30
000007F9=miso3_03d01
000007FA=miso3_03d02
000007FB=miso3_03d03
000007FC=miso3_03d08
000007FD=miso3_03d10
000007FE=miso3_03d11
000007FF=miso3_03d13
00000800=miso3_03d24
00000801=miso3_03d25
00000802=miso3_09a08
00000803=miso3_09a11
00000804=miso3_09a28
00000805=miso3_09b06
00000806=miso3_09b08
00000807=miso3_09b19
00000808=miso3_09c01
00000809=miso3_09c03
0000080A=miso3_09c06
0000080B=miso3_09c08
0000080C=miso3_09c19
0000080D=miso3_10a30
0000080E=miso3_10b11
0000080F=miso3_10b24
00000810=miso3_10b25
00000811=miso3_10b27
00000812=miso3_10c21
00000813=miso3_10c27
00000814=miso3_10d19
00000815=miso3_10f11
00000816=miso3_10f25
00000817=miso3_10f28
00000818=miso3_10g20
00000819=miso3_11b16
0000081A=miso3_11b25
0000081B=miso3_11b27
0000081C=miso3_11c24
0000081D=miso3_11d16
0000081E=miso3_11d20
0000081F=miso3_11d24
00000820=miso3_11d25
00000821=miso3_11d27
00000822=miso3_13a14
00000823=miso3_13a28
00000824=miso3_13a29
00000825=miso3_13a31
00000826=miso3_13c18
00000827=miso3_13c28
00000828=miso3_13c29
00000829=miso3_13c31
0000082A=nana1_0n_a01
0000082B=nana1_0n_a02
0000082C=nana1_0n_a03
0000082D=nana1_0n_a04
0000082E=nana1_0n_a05
0000082F=nana1_0n_a06
00000830=nana1_0n_a062
00000831=nana1_0n_a063
00000832=nana1_0n_b01
00000833=nana1_0n_b02
00000834=nana1_0n_b03
00000835=nana1_0n_b04
00000836=nana1_0n_b05
00000837=nana1_0n_b06
00000838=nana1_1n_a01
00000839=nana1_1n_a01s
0000083A=nana1_1n_a02
0000083B=nana1_1n_a02s
0000083C=nana1_1n_a03
0000083D=nana1_1n_a03s
0000083E=nana1_1n_a04
0000083F=nana1_1n_a04s
00000840=nana1_1n_a04ss
00000841=nana1_1n_a05
00000842=nana1_1n_a05s
00000843=nana1_1n_a05ss
00000844=nana1_1n_a06
00000845=nana1_1n_a06s
00000846=nana1_1n_a07
00000847=nana1_1n_a07s
00000848=nana1_1n_a08
00000849=nana1_1n_a08s
0000084A=nana1_1n_a09
0000084B=nana1_1n_a09s
0000084C=nana1_1n_a10
0000084D=nana1_1n_a10s
0000084E=nana1_1n_a11s
0000084F=nana1_1n_a12
00000850=nana1_1n_a12s
00000851=nana1_1n_a13
00000852=nana1_1n_a13s
00000853=nana1_1n_a14
00000854=nana1_1n_a14s
00000855=nana1_1n_b01
00000856=nana1_1n_b01s
00000857=nana1_1n_b02
00000858=nana1_1n_b02s
00000859=nana1_1n_b03
0000085A=nana1_1n_b03s
0000085B=nana1_1n_b04
0000085C=nana1_1n_b04s
0000085D=nana1_1n_b05
0000085E=nana1_1n_b05s
0000085F=nana1_1n_b06
00000860=nana1_1n_b06s
00000861=nana1_1n_b07
00000862=nana1_1n_b07s
00000863=nana1_1n_b08
00000864=nana1_1n_b08s
00000865=nana1_1n_b09
00000866=nana1_1n_b09s
00000867=nana1_1n_b10
00000868=nana1_1n_b10s
00000869=nana1_1n_b12
0000086A=nana1_1n_b13
0000086B=nana1_1n_b13s
0000086C=nana1_1n_b14
0000086D=nana1_1n_b14s
0000086E=nana1_1n_c01
0000086F=nana1_1n_c02
00000870=nana1_1n_c03s
00000871=nana1_1n_d03
00000872=nana1_1n_d09
00000873=nana1_1n_d09s
00000874=nana1_1s_a01
00000875=nana1_1s_a01s
00000876=nana1_1s_a02
00000877=nana1_1s_a03
00000878=nana1_1s_a03s
00000879=nana1_1s_a04
0000087A=nana1_1s_a07
0000087B=nana1_1s_a08
0000087C=nana1_1s_a09
0000087D=nana1_1s_a13s
0000087E=nana1_1s_a14s
0000087F=nana1_1s_b01
00000880=nana1_1s_b02
00000881=nana1_1s_b03
00000882=nana1_1s_b03s
00000883=nana1_1s_b04
00000884=nana1_1s_b07
00000885=nana1_1s_b09s
00000886=nana1_1s_b13
00000887=nana1_1s_b13s
00000888=nana1_1s_c04s
00000889=nana1_2n_a01s
0000088A=nana1_2n_a02s
0000088B=nana1_2n_a03s
0000088C=nana1_2n_a06s
0000088D=nana1_2n_a07s
0000088E=nana1_2n_a10s
0000088F=nana1_2n_b08s
00000890=nana1_2n_b09s
00000891=nana1_2n_b14s
00000892=nana1_3n_a01s
00000893=nana1_3n_a01sb
00000894=nana1_3n_a01se
00000895=nana1_3n_a02s
00000896=nana1_3n_a02sb
00000897=nana1_3n_a02se
00000898=nana1_3n_a03s
00000899=nana1_3n_a03sb
0000089A=nana1_3n_a03se
0000089B=nana1_3n_a04s
0000089C=nana1_3n_a04se
0000089D=nana1_3n_a05se
0000089E=nana1_3n_a07sb
0000089F=nana1_3n_a08se
000008A0=nana1_3n_a09s
000008A1=nana1_3n_a09sb
000008A2=nana1_3n_a10s
000008A3=nana1_3n_a10se
000008A4=nana1_3n_a12se
000008A5=nana1_3n_a13s
000008A6=nana1_3n_a14se
000008A7=nana1_3n_b01s
000008A8=nana1_3n_b01sb
000008A9=nana1_3n_b02s
000008AA=nana1_3n_b02sb
000008AB=nana1_3n_b03sb
000008AC=nana1_3n_b04s
000008AD=nana1_3n_b05s
000008AE=nana1_3n_b05sb
000008AF=nana1_3n_b08sb
000008B0=nana1_3n_b10s
000008B1=nana1_3n_b10sb
000008B2=nana1_3n_b13s
000008B3=nana1_3n_b13sb
000008B4=nana1_3n_b14s
000008B5=nana1_3n_d09s
000008B6=nana1_3s_a01
000008B7=nana1_3s_a02s
000008B8=nana1_3s_a05s
000008B9=nana1_3s_a10
000008BA=nana1_3s_a13
000008BB=nana1_3s_b03
000008BC=nana1_3s_b03s
000008BD=nana1_3s_b04
000008BE=nana1_3s_b07
000008BF=nana1_3s_b10
000008C0=nana1_3s_b13
000008C1=nana1_4n_a01
000008C2=nana1_4n_a01s
000008C3=nana1_4n_a01se
000008C4=nana1_4n_a02
000008C5=nana1_4n_a02s
000008C6=nana1_4n_a02se
000008C7=nana1_4n_a03
000008C8=nana1_4n_a03s
000008C9=nana1_4n_a03se
000008CA=nana1_4n_a04
000008CB=nana1_4n_a04s
000008CC=nana1_4n_a04se
000008CD=nana1_4n_a05
000008CE=nana1_4n_a05s
000008CF=nana1_4n_a05se
000008D0=nana1_4n_a06
000008D1=nana1_4n_a06s
000008D2=nana1_4n_a08s
000008D3=nana1_4n_a09
000008D4=nana1_4n_a09s
000008D5=nana1_4n_a10
000008D6=nana1_4n_a10s
000008D7=nana1_4n_a11s
000008D8=nana1_4n_a12
000008D9=nana1_4n_a12s
000008DA=nana1_4n_a13
000008DB=nana1_4n_a14
000008DC=nana1_4n_a14s
000008DD=nana1_4n_b01
000008DE=nana1_4n_b01s
000008DF=nana1_4n_b02
000008E0=nana1_4n_b02s
000008E1=nana1_4n_b03
000008E2=nana1_4n_b03s
000008E3=nana1_4n_b04
000008E4=nana1_4n_b04s
000008E5=nana1_4n_b05
000008E6=nana1_4n_b05s
000008E7=nana1_4n_b06
000008E8=nana1_4n_b06s
000008E9=nana1_4n_b08s
000008EA=nana1_4n_b09s
000008EB=nana1_4n_b11s
000008EC=nana1_4n_b12
000008ED=nana1_4n_b13
000008EE=nana1_4n_b13s
000008EF=nana1_4n_b14s
000008F0=nana1_4n_c09s
000008F1=nana1_4n_d08s
000008F2=nana1_4n_d09
000008F3=nana1_5n_a01
000008F4=nana1_5n_a02
000008F5=nana1_5n_a03
000008F6=nana1_5n_a03s
000008F7=nana1_5n_a04
000008F8=nana1_5n_a09
000008F9=nana1_5n_b01
000008FA=nana1_5n_b02
000008FB=nana1_5n_b03
000008FC=nana1_5n_b04
000008FD=nana1_5n_b05s
000008FE=nana1_5n_b08s
000008FF=nana1_5n_d09s
00000900=nana1_6n_a01
00000901=nana1_6n_a01s
00000902=nana1_6n_a02s
00000903=nana1_6n_a03s
00000904=nana1_6n_a04s
00000905=nana1_6n_a05s
00000906=nana1_6n_a06s
00000907=nana1_6n_a09s
00000908=nana1_6n_a10s
00000909=nana1_6n_a13s
0000090A=nana1_6n_a14s
0000090B=nana1_6n_b01
0000090C=nana1_6n_b02s
0000090D=nana1_6n_b03s
0000090E=nana1_6n_b04
0000090F=nana1_6n_b06
00000910=nana1_6n_b08s
00000911=nana1_6n_b14s
00000912=nana1_8n_a01c
00000913=nana1_8n_a01e
00000914=nana1_8n_a01se
00000915=nana1_8n_a02c
00000916=nana1_8n_a02e
00000917=nana1_8n_a03c
00000918=nana1_8n_a03e
00000919=nana1_8n_a04e
0000091A=nana1_8n_a04se
0000091B=nana1_8n_a05e
0000091C=nana1_8n_a06e
0000091D=nana1_8n_a08se
0000091E=nana1_8n_a12e
0000091F=nana1_8n_a14c
00000920=nana1_8n_a14se
00000921=nana1_8n_b01c
00000922=nana1_9n_a01s
00000923=nana1_9n_a02
00000924=nana1_9n_a02s
00000925=nana1_9n_a03s
00000926=nana1_9n_a04s
00000927=nana1_9n_a08s
00000928=nana1_9n_a14s
00000929=nana1_9n_b01
0000092A=nana1_9n_b01s
0000092B=nana1_9n_b02s
0000092C=nana1_9n_b03s
0000092D=nana1_9n_b08s
0000092E=nana1_9n_b10s
0000092F=nana1_9n_b14s
00000930=nana2_0n_a04
00000931=nana2_0n_a06
00000932=nana2_0n_b06
00000933=nana2_1n_a01
00000934=nana2_1n_a02
00000935=nana2_1n_a03
00000936=nana2_1n_a06
00000937=nana2_1n_a09
00000938=nana2_1n_a13
00000939=nana2_1n_a14
0000093A=nana2_1n_b01
0000093B=nana2_1n_b02
0000093C=nana2_1n_b03
0000093D=nana2_1n_b04
0000093E=nana2_1n_b05
0000093F=nana2_1n_b09
00000940=nana2_1n_b12
00000941=nana2_1n_d03
00000942=nana2_1s_a01
00000943=nana2_1s_a02
00000944=nana2_1s_b01
00000945=nana2_1s_b02
00000946=nana2_1s_b03
00000947=nana2_1s_b05
00000948=nana2_1s_b09
00000949=nana2_3n_a01s
0000094A=nana2_3n_a02s
0000094B=nana2_3n_a03sb
0000094C=nana2_3n_a05sb
0000094D=nana2_3n_a06s
0000094E=nana2_3n_a06sb
0000094F=nana2_3n_b01sb
00000950=nana2_3n_b02s
00000951=nana2_3n_b03s
00000952=nana2_3n_b05s
00000953=nana2_3n_b08sb
00000954=nana2_3n_b10sb
00000955=nana2_4n_a01
00000956=nana2_4n_a01s
00000957=nana2_4n_a03
00000958=nana2_4n_a04
00000959=nana2_4n_a06
0000095A=nana2_4n_a12
0000095B=nana2_4n_b01
0000095C=nana2_4n_b02
0000095D=nana2_4n_b03
0000095E=nana2_4n_b05
0000095F=nana2_4n_b09
00000960=nana3_0n_a01
00000961=nana3_0n_a03
00000962=nana3_0n_b01
00000963=nana3_0n_b03
00000964=nana3_0n_b06
00000965=nana3_1n_a01
00000966=nana3_1n_a01s
00000967=nana3_1n_a02
00000968=nana3_1n_a03
00000969=nana3_1n_a03s
0000096A=nana3_1n_a04
0000096B=nana3_1n_a05
0000096C=nana3_1n_a06
0000096D=nana3_1n_a08s
0000096E=nana3_1n_a12s
0000096F=nana3_1n_b01
00000970=nana3_1n_b02s
00000971=nana3_1n_b03
00000972=nana3_1n_b03s
00000973=nana3_1n_b04
00000974=nana3_1n_b05
00000975=nana3_1n_b06
00000976=nana3_1n_b06s
00000977=nana3_1n_b08
00000978=nana3_1s_b02
00000979=nana3_1s_b03
0000097A=nana3_4n_a01
0000097B=nana3_4n_a01s
0000097C=nana3_4n_a02s
0000097D=nana3_4n_a03
0000097E=nana3_4n_a03s
0000097F=nana3_4n_a04
00000980=nana3_4n_a05
00000981=nana3_4n_a05s
00000982=nana3_4n_a06
00000983=nana3_4n_a06s
00000984=nana3_4n_a08
00000985=nana3_4n_a09
00000986=nana3_4n_a12
00000987=nana3_4n_b01
00000988=nana3_4n_b02
00000989=nana3_4n_b02s
0000098A=nana3_4n_b03
0000098B=nana3_4n_b03s
0000098C=nana3_4n_b05s
0000098D=nana3_4n_b06
0000098E=nana3_4n_b09
0000098F=nana3_4n_b12
00000990=nana3_4n_d10
00000991=nana3_6n_a01s
00000992=nana3_6n_a02s
00000993=nana3_6n_a05s
00000994=nana3_6n_a14s
00000995=nana3_6n_b01s
00000996=nana3_6n_b02s
00000997=nana3_6n_b03s
00000998=nhako1_01
00000999=nhako1_06
0000099A=nhako1_08
0000099B=nhako1_11
0000099C=nhako1_12
0000099D=nhako1_14
0000099E=nhako1_15
0000099F=nhako2_06
000009A0=nhako2_10
000009A1=nhako2_12
000009A2=nhako2_14
000009A3=okam1_1n_a01
000009A4=okam1_1n_a02
000009A5=okam1_1n_a03
000009A6=okam1_1n_a04
000009A7=okam1_1n_a05
000009A8=okam1_1n_a06
000009A9=okam1_1n_a07
000009AA=okam1_1n_a08
000009AB=okam1_1n_b01
000009AC=okam1_1n_b02
000009AD=okam1_1n_b03
000009AE=okam1_1n_b04
000009AF=okam1_1n_b05
000009B0=okam1_1n_b07
000009B1=okam1_1n_b08
000009B2=papa1_1n_a01
000009B3=papa1_1n_a02
000009B4=papa1_1n_a03
000009B5=papa1_1n_a04
000009B6=papa1_1n_a05
000009B7=papa1_1n_a06
000009B8=papa1_1n_b01
000009B9=papa1_1n_b02
000009BA=papa1_1n_b03
000009BB=papa1_1n_b04
000009BC=papa1_1n_b05
000009BD=papa1_1n_b06
000009BE=papa1_1n_c01
000009BF=papa1_1n_c02
000009C0=papa1_1n_c05
000009C1=papa1_2n_a01
000009C2=papa1_2n_a03
000009C3=papa1_2n_b01
000009C4=papa1_2n_b02
000009C5=saku1_00a01
000009C6=saku1_00a02
000009C7=saku1_00a03
000009C8=saku1_00a04
000009C9=saku1_00a04t
000009CA=saku1_00a05
000009CB=saku1_00a06
000009CC=saku1_00a07
000009CD=saku1_00a08
000009CE=saku1_00a09
000009CF=saku1_00a10
000009D0=saku1_00a10t
000009D1=saku1_00a11
000009D2=saku1_00a12
000009D3=saku1_00a12t
000009D4=saku1_00a16
000009D5=saku1_00a17
000009D6=saku1_00a19
000009D7=saku1_00a19t
000009D8=saku1_00a20t
000009D9=saku1_00b05t
000009DA=saku1_00b07
000009DB=saku1_01a01
000009DC=saku1_01a02
000009DD=saku1_01a03
000009DE=saku1_01a04
000009DF=saku1_01a05
000009E0=saku1_01a08t
000009E1=saku1_01a09
000009E2=saku1_01a10
000009E3=saku1_01a11
000009E4=saku1_01a13
000009E5=saku1_01a14
000009E6=saku1_01a15
000009E7=saku1_01a17
000009E8=saku1_01a17t
000009E9=saku1_01a22
000009EA=saku1_01a23
000009EB=saku1_01a24
000009EC=saku1_01b01
000009ED=saku1_01b03
000009EE=saku1_01b04
000009EF=saku1_01b15
000009F0=saku1_01b16
000009F1=saku1_01b16t
000009F2=saku1_01b17t
000009F3=saku1_01b22
000009F4=saku1_01b24
000009F5=saku1_01c02
000009F6=saku1_01c03
000009F7=saku1_01c04
000009F8=saku1_01c14
000009F9=saku1_01c17
000009FA=saku1_01c18t
000009FB=saku1_01c20
000009FC=saku1_01c22
000009FD=saku1_01c23
000009FE=saku1_01c23t
000009FF=saku1_01c25
00000A00=saku1_01d02
00000A01=saku1_01d03
00000A02=saku1_01d04
00000A03=saku1_01d05
00000A04=saku1_01d07
00000A05=saku1_01d11
00000A06=saku1_01d14
00000A07=saku1_01d15
00000A08=saku1_01d16
00000A09=saku1_01d16t
00000A0A=saku1_01d17
00000A0B=saku1_01d19
00000A0C=saku1_01d20
00000A0D=saku1_01d22
00000A0E=saku1_01d23
00000A0F=saku1_01d24
00000A10=saku1_01d25
00000A11=saku1_01e02
00000A12=saku1_01e03
00000A13=saku1_01e04
00000A14=saku1_01e08
00000A15=saku1_01e09
00000A16=saku1_01e11
00000A17=saku1_01e12
00000A18=saku1_01e13
00000A19=saku1_01e14
00000A1A=saku1_01e15
00000A1B=saku1_01e16
00000A1C=saku1_01e17
00000A1D=saku1_01e20
00000A1E=saku1_01e22
00000A1F=saku1_01e24
00000A20=saku1_01f02
00000A21=saku1_01f03
00000A22=saku1_01f04
00000A23=saku1_01f05
00000A24=saku1_01f25t
00000A25=saku1_02a01
00000A26=saku1_02a14
00000A27=saku1_02b01
00000A28=saku1_02b05
00000A29=saku1_02c01
00000A2A=saku1_02c03
00000A2B=saku1_02c04
00000A2C=saku1_02c05
00000A2D=saku1_02c11
00000A2E=saku1_02d03
00000A2F=saku1_02d09
00000A30=saku1_02d20
00000A31=saku1_02d23
00000A32=saku1_02e11
00000A33=saku1_03a01
00000A34=saku1_03a02
00000A35=saku1_03a03
00000A36=saku1_03a06
00000A37=saku1_03a11
00000A38=saku1_03b01
00000A39=saku1_03b24
00000A3A=saku1_03b25
00000A3B=saku1_03c03
00000A3C=saku1_03c04
00000A3D=saku1_03c05
00000A3E=saku1_03c11
00000A3F=saku1_03c14
00000A40=saku1_03d07
00000A41=saku1_03d11
00000A42=saku1_03e05
00000A43=saku1_04a01
00000A44=saku1_04b02
00000A45=saku1_04b03
00000A46=saku1_04e02
00000A47=saku1_04f03
00000A48=saku1_05a17t
00000A49=saku1_05a18
00000A4A=saku1_05a22
00000A4B=saku1_05a24
00000A4C=saku1_05a25
00000A4D=saku1_05b04
00000A4E=saku1_05b05
00000A4F=saku1_05b07t
00000A50=saku1_05b10t
00000A51=saku1_05b13
00000A52=saku1_05b17
00000A53=saku1_05b18
00000A54=saku1_05c12
00000A55=saku1_05c19
00000A56=saku1_05c23
00000A57=saku1_05d11
00000A58=saku1_05d15
00000A59=saku1_05d16
00000A5A=saku1_05d19
00000A5B=saku1_05d20
00000A5C=saku1_05d22
00000A5D=saku1_05d23
00000A5E=saku1_05e03
00000A5F=saku1_05e09
00000A60=saku1_05e22
00000A61=saku1_05e24
00000A62=saku1_05f03
00000A63=saku1_05f04
00000A64=saku1_05f11
00000A65=saku1_06b03
00000A66=saku1_06c11
00000A67=saku1_06e01
00000A68=saku1_06e04
00000A69=saku1_06f04
00000A6A=saku1_0n_a01
00000A6B=saku1_0n_a01s
00000A6C=saku1_0n_a02
00000A6D=saku1_0n_a02s
00000A6E=saku1_0n_a03s
00000A6F=saku1_0n_a04
00000A70=saku1_0n_a04s
00000A71=saku1_0n_a06
00000A72=saku1_0n_a06s
00000A73=saku1_1n_a01
00000A74=saku1_1n_a01m
00000A75=saku1_1n_a02
00000A76=saku1_1n_a02m
00000A77=saku1_1n_a03
00000A78=saku1_1n_a03m
00000A79=saku1_1n_a04
00000A7A=saku1_1n_a04m
00000A7B=saku1_1n_a05
00000A7C=saku1_1n_a05m
00000A7D=saku1_1n_b01
00000A7E=saku1_1n_b01m
00000A7F=saku1_1n_b02
00000A80=saku1_1n_b02m
00000A81=saku1_1n_b03
00000A82=saku1_1n_b03m
00000A83=saku1_1n_b04
00000A84=saku1_1n_b04m
00000A85=saku1_1n_b05
00000A86=saku1_1n_b05m
00000A87=saku2_01b25
00000A88=saku2_01c04
00000A89=saku2_04b03
00000A8A=saku2_04c02
00000A8B=saku2_04c07
00000A8C=saku2_04d01
00000A8D=saku2_04d23
00000A8E=saku2_05c07
00000A8F=saku2_1n_a01m
00000A90=saku2_1n_a04m
00000A91=saku2_1n_b04m
00000A92=saku3_00a05
00000A93=saku3_00a06
00000A94=saku3_01a15
00000A95=saku3_01c11
00000A96=saku3_01c17
00000A97=saku3_01f03
00000A98=saku3_01f23
00000A99=saku3_03a01
00000A9A=saku3_03a03
00000A9B=saku3_03a04
00000A9C=saku3_03a08
00000A9D=saku3_03a11
00000A9E=saku3_03a14
00000A9F=saku3_03a26
00000AA0=saku3_03b08
00000AA1=saku3_03b26
00000AA2=saku3_03c01
00000AA3=saku3_03c03
00000AA4=saku3_03c08
00000AA5=saku3_03c24
00000AA6=saku3_03c26
00000AA7=saku3_03d01
00000AA8=saku3_03e01
00000AA9=saku3_03e03
00000AAA=saku3_03e08
00000AAB=saku3_03e25
00000AAC=saku3_1n_a01
00000AAD=saku3_1n_a05
00000AAE=saku3_1n_b03
00000AAF=saku3_1n_b04
00000AB0=shin1_1s_a01
00000AB1=shin1_1s_a02
00000AB2=shin1_1s_a03
00000AB3=shin1_1s_a04
00000AB4=shin1_1s_a05
00000AB5=shin1_1s_a06
00000AB6=shin1_1s_a07
00000AB7=shin1_1s_b01
00000AB8=shin1_1s_b02
00000AB9=shin1_1s_b04
00000ABA=shin1_1s_b05
00000ABB=shin1_1s_c01
00000ABC=shin1_1s_c04
00000ABD=suzu1_0n_a01
00000ABE=suzu1_0n_a02
00000ABF=suzu1_0n_a03
00000AC0=suzu1_0n_a04
00000AC1=suzu1_0n_a05
00000AC2=suzu1_0n_a05s
00000AC3=suzu1_0n_a06
00000AC4=suzu1_0n_a07
00000AC5=suzu1_0n_a07s
00000AC6=suzu1_0n_b01
00000AC7=suzu1_0n_b02
00000AC8=suzu1_0n_b03
00000AC9=suzu1_0n_b04
00000ACA=suzu1_0n_b05
00000ACB=suzu1_0n_b06
00000ACC=suzu1_0n_b07
00000ACD=suzu1_0n_b07s
00000ACE=suzu1_1n_b06
00000ACF=suzu1_1s_a01m
00000AD0=suzu1_1s_a02m
00000AD1=suzu1_1s_a16m
00000AD2=suzu1_1s_a17m
00000AD3=suzu1_1s_a18m
00000AD4=suzu1_1s_a19m
00000AD5=suzu1_1s_a21m
00000AD6=suzu1_1s_a22m
00000AD7=suzu1_1s_a22mt
00000AD8=suzu1_1s_b16m
00000AD9=suzu1_1s_b17m
00000ADA=suzu1_1s_b18m
00000ADB=suzu1_1s_b19m
00000ADC=suzu1_1s_b21m
00000ADD=suzu1_1s_c17m
00000ADE=suzu1_2n_a01
00000ADF=suzu1_2n_a02
00000AE0=suzu1_2n_a03
00000AE1=suzu1_2n_a04
00000AE2=suzu1_2n_a05
00000AE3=suzu1_2n_a06
00000AE4=suzu1_2n_a08
00000AE5=suzu1_2n_a11
00000AE6=suzu1_2n_a12
00000AE7=suzu1_2n_a12t
00000AE8=suzu1_2n_a13
00000AE9=suzu1_2n_a14
00000AEA=suzu1_2n_a15
00000AEB=suzu1_2n_b01
00000AEC=suzu1_2n_b02
00000AED=suzu1_2n_b03
00000AEE=suzu1_2n_b04
00000AEF=suzu1_2n_b06
00000AF0=suzu1_2n_b08
00000AF1=suzu1_2n_b10
00000AF2=suzu1_2n_b11
00000AF3=suzu1_2n_b11t
00000AF4=suzu1_2n_b12
00000AF5=suzu1_2n_b13
00000AF6=suzu1_2n_b15
00000AF7=suzu1_2n_c01
00000AF8=suzu1_2n_c02
00000AF9=suzu1_2n_c03
00000AFA=suzu1_2n_c12
00000AFB=suzu1_2n_c15
00000AFC=suzu1_2n_d01
00000AFD=suzu1_2n_d02
00000AFE=suzu1_2n_d05
00000AFF=suzu1_2n_d07
00000B00=suzu1_2n_d11
00000B01=suzu1_2n_d12
00000B02=suzu1_2n_d15
00000B03=suzu1_2s_a01
00000B04=suzu1_2s_a01m
00000B05=suzu1_2s_a02
00000B06=suzu1_2s_a02m
00000B07=suzu1_2s_a03
00000B08=suzu1_2s_a03m
00000B09=suzu1_2s_a04
00000B0A=suzu1_2s_a05m
00000B0B=suzu1_2s_a10
00000B0C=suzu1_2s_a11
00000B0D=suzu1_2s_a12
00000B0E=suzu1_2s_a12m
00000B0F=suzu1_2s_a13
00000B10=suzu1_2s_a13t
00000B11=suzu1_2s_a15
00000B12=suzu1_2s_a16
00000B13=suzu1_2s_a17
00000B14=suzu1_2s_a17m
00000B15=suzu1_2s_a18m
00000B16=suzu1_2s_a19m
00000B17=suzu1_2s_a21m
00000B18=suzu1_2s_a21mt
00000B19=suzu1_2s_a22m
00000B1A=suzu1_2s_a22mt
00000B1B=suzu1_2s_a24m
00000B1C=suzu1_2s_a25m
00000B1D=suzu1_2s_b01
00000B1E=suzu1_2s_b01m
00000B1F=suzu1_2s_b02
00000B20=suzu1_2s_b02m
00000B21=suzu1_2s_b03m
00000B22=suzu1_2s_b04
00000B23=suzu1_2s_b08
00000B24=suzu1_2s_b09
00000B25=suzu1_2s_b11
00000B26=suzu1_2s_b14
00000B27=suzu1_2s_b15
00000B28=suzu1_2s_b15m
00000B29=suzu1_2s_b16
00000B2A=suzu1_2s_b16m
00000B2B=suzu1_2s_b17m
00000B2C=suzu1_2s_b18m
00000B2D=suzu1_2s_b19m
00000B2E=suzu1_2s_b20m
00000B2F=suzu1_2s_b21m
00000B30=suzu1_2s_b22m
00000B31=suzu1_2s_b23m
00000B32=suzu1_2s_b24m
00000B33=suzu1_2s_b25m
00000B34=suzu1_2s_c21m
00000B35=suzu1_2s_d09
00000B36=suzu1_3n_a01
00000B37=suzu1_3n_a02
00000B38=suzu1_3n_a03
00000B39=suzu1_3n_a04
00000B3A=suzu1_3n_a05
00000B3B=suzu1_3n_a06
00000B3C=suzu1_3n_a11
00000B3D=suzu1_3n_a14
00000B3E=suzu1_3n_b01
00000B3F=suzu1_3n_b02
00000B40=suzu1_3n_b03
00000B41=suzu1_3n_b05
00000B42=suzu1_3n_b06
00000B43=suzu1_3n_b08
00000B44=suzu1_3n_b11
00000B45=suzu1_3n_b13
00000B46=suzu1_3n_b14
00000B47=suzu1_3n_b15
00000B48=suzu1_3n_c01
00000B49=suzu1_3n_c02
00000B4A=suzu1_3n_c03
00000B4B=suzu1_3n_c11
00000B4C=suzu1_3n_c13
00000B4D=suzu1_3n_c15
00000B4E=suzu1_3n_d02
00000B4F=suzu1_3s_a01
00000B50=suzu1_3s_a01m
00000B51=suzu1_3s_a01mt
00000B52=suzu1_3s_a02
00000B53=suzu1_3s_a02m
00000B54=suzu1_3s_a03
00000B55=suzu1_3s_a03m
00000B56=suzu1_3s_a04
00000B57=suzu1_3s_a15
00000B58=suzu1_3s_a15m
00000B59=suzu1_3s_a16m
00000B5A=suzu1_3s_a16mt
00000B5B=suzu1_3s_a17m
00000B5C=suzu1_3s_a17mt
00000B5D=suzu1_3s_a18m
00000B5E=suzu1_3s_a18mt
00000B5F=suzu1_3s_a19m
00000B60=suzu1_3s_a19mt
00000B61=suzu1_3s_a21m
00000B62=suzu1_3s_a21mt
00000B63=suzu1_3s_a22m
00000B64=suzu1_3s_a22mt
00000B65=suzu1_3s_a24m
00000B66=suzu1_3s_a24mt
00000B67=suzu1_3s_a25m
00000B68=suzu1_3s_a25mt
00000B69=suzu1_3s_b01
00000B6A=suzu1_3s_b01m
00000B6B=suzu1_3s_b01mt
00000B6C=suzu1_3s_b03m
00000B6D=suzu1_3s_b03mt
00000B6E=suzu1_3s_b04
00000B6F=suzu1_3s_b05
00000B70=suzu1_3s_b07
00000B71=suzu1_3s_b10
00000B72=suzu1_3s_b11
00000B73=suzu1_3s_b12
00000B74=suzu1_3s_b15m
00000B75=suzu1_3s_b16
00000B76=suzu1_3s_b16mt
00000B77=suzu1_3s_b17m
00000B78=suzu1_3s_b17mt
00000B79=suzu1_3s_b18m
00000B7A=suzu1_3s_b19m
00000B7B=suzu1_3s_b19mt
00000B7C=suzu1_3s_b20m
00000B7D=suzu1_3s_b21m
00000B7E=suzu1_3s_b21mt
00000B7F=suzu1_3s_b22m
00000B80=suzu1_3s_b22mt
00000B81=suzu1_3s_b23m
00000B82=suzu1_3s_b25m
00000B83=suzu1_3s_c01m
00000B84=suzu1_3s_c17m
00000B85=suzu1_3s_d12
00000B86=suzu1_4n_a01
00000B87=suzu1_4n_a02
00000B88=suzu1_4n_a03
00000B89=suzu1_4n_a06
00000B8A=suzu1_4n_a11
00000B8B=suzu1_4n_a12
00000B8C=suzu1_4n_a15
00000B8D=suzu1_4n_b01
00000B8E=suzu1_4n_b02
00000B8F=suzu1_4n_b03
00000B90=suzu1_4n_b06
00000B91=suzu1_4n_b15
00000B92=suzu1_4n_c01
00000B93=suzu1_4n_c02
00000B94=suzu1_4n_c03
00000B95=suzu1_4n_c11
00000B96=suzu1_4n_c15
00000B97=suzu1_5n_a01m
00000B98=suzu1_5n_a01mt
00000B99=suzu1_5n_a02
00000B9A=suzu1_5n_a02mt
00000B9B=suzu1_5n_a03
00000B9C=suzu1_5n_a05m
00000B9D=suzu1_5n_a06
00000B9E=suzu1_5n_a13
00000B9F=suzu1_5n_a13m
00000BA0=suzu1_5n_a14m
00000BA1=suzu1_5n_a14mt
00000BA2=suzu1_5n_a16m
00000BA3=suzu1_5n_b01
00000BA4=suzu1_5n_b01m
00000BA5=suzu1_5n_b01mt
00000BA6=suzu1_5n_b02
00000BA7=suzu1_5n_b03
00000BA8=suzu1_5n_b05m
00000BA9=suzu1_5n_b14m
00000BAA=suzu1_5n_b14mt
00000BAB=suzu1_5n_b16m
00000BAC=suzu1_5n_c01m
00000BAD=suzu1_5n_c05m
00000BAE=suzu1_5n_c14mt
00000BAF=suzu1_6n_a01
00000BB0=suzu1_6n_a01m
00000BB1=suzu1_6n_a02
00000BB2=suzu1_6n_a03
00000BB3=suzu1_6n_a06
00000BB4=suzu1_6n_a11
00000BB5=suzu1_6n_a13
00000BB6=suzu1_6n_a14
00000BB7=suzu1_6n_a14m
00000BB8=suzu1_6n_a15
00000BB9=suzu1_6n_a15m
00000BBA=suzu1_6n_a16m
00000BBB=suzu1_6n_b01
00000BBC=suzu1_6n_b01m
00000BBD=suzu1_6n_b02
00000BBE=suzu1_6n_b03
00000BBF=suzu1_6n_b05m
00000BC0=suzu1_6n_b06
00000BC1=suzu1_6n_b11
00000BC2=suzu1_6n_b13
00000BC3=suzu1_6n_b14
00000BC4=suzu1_6n_b14m
00000BC5=suzu1_6n_b15
00000BC6=suzu1_6n_b15m
00000BC7=suzu1_6n_c01
00000BC8=suzu1_6n_c02
00000BC9=suzu1_6n_c06
00000BCA=suzu1_6n_c15
00000BCB=suzu1_9n_a01
00000BCC=suzu1_9n_a02
00000BCD=suzu1_9s_a01m
00000BCE=suzu1_9s_a02m
00000BCF=suzu1_9s_a16m
00000BD0=suzu1_9s_a17m
00000BD1=suzu1_9s_a18m
00000BD2=suzu1_9s_a19m
00000BD3=suzu1_9s_a21m
00000BD4=suzu1_9s_a22m
00000BD5=suzu1_9s_b17m
00000BD6=suzu1_9s_b19mt
00000BD7=suzu2_0n_a01
00000BD8=suzu2_0n_a02
00000BD9=suzu2_0n_a03
00000BDA=suzu2_0n_a04
00000BDB=suzu2_0n_a05
00000BDC=suzu2_0n_a07
00000BDD=suzu2_0n_b01
00000BDE=suzu2_0n_b02
00000BDF=suzu2_0n_b03
00000BE0=suzu2_0n_b04
00000BE1=suzu2_0n_b05
00000BE2=suzu2_0n_b06
00000BE3=suzu2_0n_b07
00000BE4=suzu2_1n_a02
00000BE5=suzu2_1n_a12
00000BE6=suzu2_1n_b01
00000BE7=suzu2_1n_b02
00000BE8=suzu2_1n_b05
00000BE9=suzu2_1n_b06
00000BEA=suzu2_1n_b15
00000BEB=suzu2_1n_c02
00000BEC=suzu2_2n_a01
00000BED=suzu2_2n_a02
00000BEE=suzu2_2n_a11
00000BEF=suzu2_2n_b01
00000BF0=suzu2_2n_b02
00000BF1=suzu2_2n_b03
00000BF2=suzu2_2n_b04
00000BF3=suzu2_2n_b05
00000BF4=suzu2_2n_b06
00000BF5=suzu2_2n_b08
00000BF6=suzu2_2n_b12
00000BF7=suzu2_2n_b15
00000BF8=suzu2_2s_a01m
00000BF9=suzu2_2s_a07
00000BFA=suzu2_2s_a07mt
00000BFB=suzu2_2s_a10
00000BFC=suzu2_2s_a12
00000BFD=suzu2_2s_a19mt
00000BFE=suzu2_2s_a21mt
00000BFF=suzu2_2s_a22mt
00000C00=suzu2_2s_a23mt
00000C01=suzu2_2s_a24mt
00000C02=suzu2_2s_b01m
00000C03=suzu2_2s_b04
00000C04=suzu2_2s_b17mt
00000C05=suzu2_2s_b19mt
00000C06=suzu2_2s_b23mt
00000C07=suzu2_2s_d08
00000C08=suzu2_2s_d09
00000C09=suzu2_3n_a01
00000C0A=suzu2_3n_a02
00000C0B=suzu2_3n_a13
00000C0C=suzu2_3n_a15
00000C0D=suzu2_3n_b01
00000C0E=suzu2_3n_b11
00000C0F=suzu2_3s_a01m
00000C10=suzu2_3s_a04
00000C11=suzu2_3s_a05m
00000C12=suzu2_3s_a17m
00000C13=suzu2_3s_a17mt
00000C14=suzu2_3s_a19m
00000C15=suzu2_3s_a20m
00000C16=suzu2_3s_a25m
00000C17=suzu2_3s_b01m
00000C18=suzu2_3s_b12
00000C19=suzu2_3s_b17m
00000C1A=suzu2_3s_b17mt
00000C1B=suzu2_3s_b19m
00000C1C=suzu2_3s_b21m
00000C1D=suzu2_3s_b22m
00000C1E=suzu2_3s_b22mt
00000C1F=suzu2_3s_b23m
00000C20=suzu2_3s_b25m
00000C21=suzu2_3s_b25mt
00000C22=suzu2_4n_a02
00000C23=suzu2_4n_b03
00000C24=suzu3_0n_a01
00000C25=suzu3_0n_a02
00000C26=suzu3_0n_a03
00000C27=suzu3_0n_a05
00000C28=suzu3_0n_a07
00000C29=suzu3_0n_b01
00000C2A=suzu3_0n_b02
00000C2B=suzu3_0n_b03
00000C2C=suzu3_0n_b04
00000C2D=suzu3_0n_b05
00000C2E=suzu3_0n_b07
00000C2F=suzu3_1n_a01
00000C30=suzu3_1n_a02
00000C31=suzu3_1n_b01
00000C32=suzu3_1n_b06
00000C33=suzu3_1n_b11
00000C34=suzu3_1n_c03
00000C35=suzu3_1n_c08
00000C36=suzu3_1s_a02t
00000C37=suzu3_1s_b02t
00000C38=suzu3_1s_b15t
00000C39=suzu3_2s_a01m
00000C3A=suzu3_2s_a17m
00000C3B=suzu3_2s_a19mt
00000C3C=suzu3_2s_a21m
00000C3D=suzu3_2s_a22m
00000C3E=suzu3_2s_b01m
00000C3F=suzu3_2s_b17m
00000C40=suzu3_2s_b17mt
00000C41=suzu3_3n_a01
00000C42=suzu3_3n_a03
00000C43=suzu3_3n_b01
00000C44=suzu3_3n_b02
00000C45=suzu3_3n_b11
00000C46=suzu3_3n_b17mn1t
00000C47=suzu3_3n_b18mn1t
00000C48=suzu3_3n_b19mn2t
00000C49=suzu3_3n_c02
00000C4A=suzu3_3n_c03
00000C4B=suzu3_3n_c06
00000C4C=suzu3_3n_d12
00000C4D=suzu3_3s_a01m
00000C4E=suzu3_3s_a01mt
00000C4F=suzu3_3s_a01n
00000C50=suzu3_3s_a02
00000C51=suzu3_3s_a02m
00000C52=suzu3_3s_a03
00000C53=suzu3_3s_a03mt
00000C54=suzu3_3s_a04
00000C55=suzu3_3s_a11n
00000C56=suzu3_3s_a16m
00000C57=suzu3_3s_a17m
00000C58=suzu3_3s_a17mt
00000C59=suzu3_3s_a17n
00000C5A=suzu3_3s_a18m
00000C5B=suzu3_3s_a19m
00000C5C=suzu3_3s_a19mt
00000C5D=suzu3_3s_a20m
00000C5E=suzu3_3s_a21m
00000C5F=suzu3_3s_a21mt
00000C60=suzu3_3s_a22m
00000C61=suzu3_3s_a22mt
00000C62=suzu3_3s_a23m
00000C63=suzu3_3s_a25m
00000C64=suzu3_3s_a28mn1t
00000C65=suzu3_3s_a29mt
00000C66=suzu3_3s_a30mn1t
00000C67=suzu3_3s_a30mn2t
00000C68=suzu3_3s_a32mn1t
00000C69=suzu3_3s_a34mt
00000C6A=suzu3_3s_a35m
00000C6B=suzu3_3s_a35mn1
00000C6C=suzu3_3s_a35mn1t
00000C6D=suzu3_3s_b01m
00000C6E=suzu3_3s_b02m
00000C6F=suzu3_3s_b03m
00000C70=suzu3_3s_b05m
00000C71=suzu3_3s_b05mt
00000C72=suzu3_3s_b07mt
00000C73=suzu3_3s_b09mt
00000C74=suzu3_3s_b16m
00000C75=suzu3_3s_b17m
00000C76=suzu3_3s_b17mt
00000C77=suzu3_3s_b18m
00000C78=suzu3_3s_b19m
00000C79=suzu3_3s_b19mt
00000C7A=suzu3_3s_b20m
00000C7B=suzu3_3s_b20mt
00000C7C=suzu3_3s_b21m
00000C7D=suzu3_3s_b21mt
00000C7E=suzu3_3s_b22m
00000C7F=suzu3_3s_b22mt
00000C80=suzu3_3s_b24m
00000C81=suzu3_3s_b24mt
00000C82=suzu3_3s_b25m
00000C83=suzu3_3s_b25mt
00000C84=suzu3_3s_b28mn2t
00000C85=suzu3_3s_b30mn2t
00000C86=suzu3_3s_b32mn2t
00000C87=suzu3_3s_b34m
00000C88=suzu3_3s_b35m
00000C89=suzu3_3s_b35mn1t
00000C8A=tae1_0s_a01
00000C8B=tae1_0s_a02
00000C8C=tae1_0s_a03
00000C8D=tae1_0s_a05
00000C8E=tae1_0s_a07
00000C8F=tae1_0s_a09
00000C90=tae1_1n_a01
00000C91=tae1_1n_a02
00000C92=tae1_1n_a04
00000C93=tae1_1n_a06
00000C94=tae1_1n_a07t
00000C95=tae1_1n_a08
00000C96=tae1_1n_a09
00000C97=tae1_1n_a11
00000C98=tae1_1n_a12
00000C99=tae1_1n_a13
00000C9A=tae1_1n_b01
00000C9B=tae1_1n_b02
00000C9C=tae1_1n_b04
00000C9D=tae1_1n_b06
00000C9E=tae1_1n_b06t
00000C9F=tae1_1n_b07t
00000CA0=tae1_1n_b08
00000CA1=tae1_1n_b09
00000CA2=tae1_1n_b09t
00000CA3=tae1_1n_b10
00000CA4=tae1_1n_b11
00000CA5=tae1_1n_b12
00000CA6=tae1_1n_b13
00000CA7=tae1_1n_c01
00000CA8=tae1_1n_c02
00000CA9=tae1_1n_c04
00000CAA=tae1_1n_c06
00000CAB=tae1_1n_c06t
00000CAC=tae1_1n_c07t
00000CAD=tae1_1n_c08
00000CAE=tae1_1n_c11
00000CAF=tae1_1n_c12
00000CB0=tae1_1n_c13
00000CB1=tae1_1s_a01
00000CB2=tae1_1s_a03
00000CB3=tae1_1s_a04
00000CB4=tae1_1s_a05
00000CB5=tae1_1s_a06t
00000CB6=tae1_1s_a07t
00000CB7=tae1_1s_a09
00000CB8=tae1_1s_a11
00000CB9=tae1_1s_a14
00000CBA=tae1_1s_b01
00000CBB=tae1_1s_b03
00000CBC=tae1_1s_b04
00000CBD=tae1_1s_b05
00000CBE=tae1_1s_b07t
00000CBF=tae1_1s_b08
00000CC0=tae1_1s_b09
00000CC1=tae1_1s_b11
00000CC2=tae1_1s_b12
00000CC3=tae1_1s_b14
00000CC4=tae1_1s_c01
00000CC5=tae1_1s_c04
00000CC6=tae1_1s_c05
00000CC7=tae1_1s_c06t
00000CC8=tae1_1s_c07t
00000CC9=tae1_1s_c09
00000CCA=tae1_1s_c12
00000CCB=tae1_1s_c14
00000CCC=tae1_3n_a01
00000CCD=tae1_3n_a02
00000CCE=tae1_3n_a04
00000CCF=tae1_3n_a06
00000CD0=tae1_3n_a06t
00000CD1=tae1_3n_a07t
00000CD2=tae1_3n_a08
00000CD3=tae1_3n_a08t
00000CD4=tae1_3n_a09
00000CD5=tae1_3n_a11
00000CD6=tae1_3n_a12
00000CD7=tae1_3n_a13
00000CD8=tae1_3n_b01
00000CD9=tae1_3n_b02
00000CDA=tae1_3n_b02t
00000CDB=tae1_3n_b04
00000CDC=tae1_3n_b06
00000CDD=tae1_3n_b06t
00000CDE=tae1_3n_b07t
00000CDF=tae1_3n_b08
00000CE0=tae1_3n_b09
00000CE1=tae1_3n_b10
00000CE2=tae1_3n_b11
00000CE3=tae1_3n_b11t
00000CE4=tae1_3n_b12
00000CE5=tae1_3n_b13
00000CE6=tae1_3n_b13t
00000CE7=tae1_3n_c01
00000CE8=tae1_3n_c02
00000CE9=tae1_3n_c04
00000CEA=tae1_3n_c06
00000CEB=tae1_3n_c06t
00000CEC=tae1_3n_c07t
00000CED=tae1_3n_c08
00000CEE=tae1_3n_c11
00000CEF=tae1_3n_c12t
00000CF0=tae1_3n_c13
00000CF1=tae1_3s_a01
00000CF2=tae1_3s_a03
00000CF3=tae1_3s_a04
00000CF4=tae1_3s_a05
00000CF5=tae1_3s_a06t
00000CF6=tae1_3s_a07t
00000CF7=tae1_3s_a09
00000CF8=tae1_3s_a12
00000CF9=tae1_3s_a13t
00000CFA=tae1_3s_a14
00000CFB=tae1_3s_a14t
00000CFC=tae1_3s_b01
00000CFD=tae1_3s_b03
00000CFE=tae1_3s_b04
00000CFF=tae1_3s_b05
00000D00=tae1_3s_b06t
00000D01=tae1_3s_b07t
00000D02=tae1_3s_b08t
00000D03=tae1_3s_b09
00000D04=tae1_3s_b12
00000D05=tae1_3s_b12t
00000D06=tae1_3s_b13
00000D07=tae1_3s_b13t
00000D08=tae1_3s_c04t
00000D09=tae1_3s_c14t
00000D0A=tae1_5n_a01
00000D0B=tae1_5n_a02
00000D0C=tae1_5n_a04
00000D0D=tae1_5n_a06
00000D0E=tae1_5n_a09
00000D0F=tae1_5n_a11
00000D10=tae1_5n_b01
00000D11=tae1_5n_b02
00000D12=tae1_5n_b04
00000D13=tae1_5n_b06
00000D14=tae1_5n_b08
00000D15=tae1_5n_b10
00000D16=tae1_5n_c01
00000D17=tae1_5n_c06
00000D18=tae1_5n_c08
00000D19=tae1_6n_a02
00000D1A=tae1_6n_a06t
00000D1B=tae1_6n_a12
00000D1C=tae1_6n_b06
00000D1D=tae1_6n_b06t
00000D1E=tae1_6n_b08
00000D1F=tae1_6n_b11
00000D20=tae1_6n_c07t
00000D21=tae1_6n_c08t
00000D22=tae2_1n_a01
00000D23=tae2_1n_a02
00000D24=tae2_1n_a04
00000D25=tae2_1n_a06
00000D26=tae2_1n_a07t
00000D27=tae2_1n_a08
00000D28=tae2_1n_a09
00000D29=tae2_1n_a11
00000D2A=tae2_1n_a13
00000D2B=tae2_1n_b01
00000D2C=tae2_1n_b02
00000D2D=tae2_1n_b04
00000D2E=tae2_1n_b06
00000D2F=tae2_1n_b08
00000D30=tae2_1n_b09
00000D31=tae2_1n_b11
00000D32=tae2_1n_b13
00000D33=tae2_1n_c01
00000D34=tae2_1n_c02
00000D35=tae2_1n_c04
00000D36=tae2_1n_c06
00000D37=tae2_1n_c07t
00000D38=tae2_1n_c08
00000D39=tae2_1n_c09
00000D3A=tae2_1n_c13
00000D3B=tae2_1s_a01
00000D3C=tae2_1s_a03t
00000D3D=tae2_1s_a04
00000D3E=tae2_1s_a05
00000D3F=tae2_1s_a06t
00000D40=tae2_1s_a09
00000D41=tae2_1s_b01
00000D42=tae2_1s_b03
00000D43=tae2_1s_b04
00000D44=tae2_1s_b05
00000D45=tae2_1s_b07t
00000D46=tae2_1s_b08
00000D47=tae2_1s_b14
00000D48=tae2_1s_c01
00000D49=tae2_1s_c04
00000D4A=tae2_1s_c06t
00000D4B=tae2_3n_a01
00000D4C=tae2_3n_a02
00000D4D=tae2_3n_a06
00000D4E=tae2_3n_a11
00000D4F=tae2_3n_a12
00000D50=tae2_3n_b01
00000D51=tae2_3n_b02
00000D52=tae2_3n_b06
00000D53=tae2_3n_b08
00000D54=tae2_3n_b11
00000D55=tae2_3n_b12
00000D56=tae2_3n_c01
00000D57=tae2_3n_c04
00000D58=tae2_3n_c06
00000D59=tae2_3s_a07t
00000D5A=tae2_3s_b01
00000D5B=tae2_3s_b03t
00000D5C=tae2_3s_b04
00000D5D=tae2_3s_b05
00000D5E=tae2_3s_b07t
00000D5F=tae2_3s_c12
00000D60=tae2_3s_c14
00000D61=tae3_1n_a01
00000D62=tae3_1n_a02
00000D63=tae3_1n_a06
00000D64=tae3_1n_a07t
00000D65=tae3_1n_b01
00000D66=tae3_1n_b02
00000D67=tae3_1n_b04
00000D68=tae3_1n_b06
00000D69=tae3_1n_b09
00000D6A=tae3_1n_c01
00000D6B=tae3_1n_c02
00000D6C=tae3_1n_c06
00000D6D=tae3_1n_c06t
00000D6E=tae3_1s_a01
00000D6F=tae3_1s_a03
00000D70=tae3_1s_a04
00000D71=tae3_1s_a05
00000D72=tae3_1s_a06t
00000D73=tae3_1s_b04
00000D74=tae3_1s_b05
00000D75=tae3_1s_b06t
00000D76=tae3_1s_b07t
00000D77=tae3_1s_b08
00000D78=tae3_1s_b12
00000D79=tae3_1s_c06t
00000D7A=tae3_1s_c07t
00000D7B=tae3_1s_c12
00000D7C=tae3_3n_a01
00000D7D=tae3_3n_a02
00000D7E=tae3_3n_a06
00000D7F=tae3_3n_a11
00000D80=tae3_3n_a12
00000D81=tae3_3n_a13
00000D82=tae3_3n_b01
00000D83=tae3_3n_b04
00000D84=tae3_3n_b06
00000D85=tae3_3n_b07t
00000D86=tae3_3n_b08
00000D87=tae3_3n_b11
00000D88=tae3_3n_b12
00000D89=tae3_3n_c12
00000D8A=tae3_3s_a01
00000D8B=tae3_3s_a14
00000D8C=tae3_3s_b06t
00000D8D=tae3_3s_b07t
00000D8E=tae3_3s_b12
00000D8F=tae3_3s_b14
00000D90=tae3_3s_c12
00000D91=tae3_3s_c14
00000D92=tae3_3s_c14t
